TP2/Mediciones/comp para 3.csv

#Digilent WaveForms Oscilloscope Acquisition
#Device Name: Discovery2
#Serial Number: SN:210321B0E036
#Date Time: 2021-06-24 22:20:08.220
#Sample rate: 1e+08Hz
#Samples: 8192
#Trigger: Source: Channel 2 Type: Edge Condition: Rising Level: 3.02 V Hyst.: Auto HoldOff: 0 s
#Channel 1: Range: 500 mV/div Offset: -2.8 V Attenuation: 1 X
#Channel 2: Range: 200 mV/div Offset: -2.86 V Attenuation: 1 X
#Power Supplies: ON
#Positive Supply: ON
#Voltage: 3 V
#Negative Supply: OFF
#Voltage: -1 V

Time (s),Channel 1 (V),Channel 2 (V)
0.001854842189239332,2.947248544803439,2.935108994225877
0.001854852189239332,2.947577864895702,2.931752564441889
0.001854862189239332,2.94790718498796,2.926046633809048
0.001854872189239332,2.946260584526648,2.927053562744244
0.001854882189239332,2.947907184987958,2.928060491679441
0.001854892189239332,2.947248544803428,2.923697132960257
0.001854902189239332,2.945931264434386,2.925710990830647
0.001854912189239332,2.946919224711174,2.927053562744242
0.001854922189239332,2.946589904618914,2.924032775938664
0.001854932189239332,2.948236505080226,2.920676346154599
0.001854942189239332,2.94724854480344,2.916312987435431
0.001854952189239332,2.94724854480344,2.923025847003406
0.001854962189239332,2.946260584526657,2.921011989133053
0.001854972189239332,2.945931264434382,2.920340703176227
0.001854982189239332,2.945931264434382,2.91966941721943
0.001854992189239332,2.946589904618907,2.921683275089821
0.001855002189239332,2.945272624249869,2.919669417219426
0.001855012189239332,2.946919224711168,2.919333774241033
0.001855022189239332,2.944613984065331,2.920676346154627
0.001855032189239332,2.943955343880801,2.918662488284244
0.001855042189239332,2.946919224711171,2.920005060197788
0.001855052189239332,2.946260584526647,2.914299129565015
0.001855062189239332,2.946260584526647,2.912285271694623
0.001855072189239332,2.946589904618904,2.90422984021289
0.001855082189239332,2.94593126443438,2.894496193839353
0.001855092189239332,2.945601944342118,2.890132835120169
0.001855102189239332,2.945272624249856,2.890468478098564
0.001855112189239332,2.945272624249848,2.888454620228071
0.001855122189239332,2.944613984065327,2.878385330876097
0.001855132189239332,2.945272624249852,2.864959611740148
0.001855142189239332,2.9465899046189,2.847506176863425
0.001855152189239332,2.9465899046189,2.800180516907842
0.001855162189239332,2.944943304157601,2.663909467678209
0.001855172189239332,2.957457467663575,2.806893376476071
0.001855182189239332,3.022662845931284,2.998881160119904
0.001855192189239332,3.084904343370444,3.226111456499861
0.001855202189239332,3.179089889757515,3.340565712133831
0.001855212189239332,3.255162831070165,3.40802995079202
0.001855222189239332,3.323990730354417,3.596996947632333
0.001855232189239332,3.377999225485397,3.625526600796123
0.001855242189239332,3.407308713696758,3.616464240379357
0.001855252189239332,3.4273972393248,3.506373343464893
0.001855262189239332,3.410272594526692,3.46609618605268
0.001855272189239332,3.331235772383692,3.007943520539079
0.001855282189239332,3.247588468949059,3.294246981113073
0.001855292189239332,3.168551646804342,3.065338469845198
0.001855302189239332,3.092478705492047,3.051577107730751
0.001855312189239332,3.090832105030735,3.015998952020485
0.001855322189239332,3.093795985861091,2.783734010968826
0.001855332189239332,3.095113266230716,3.111992843841222
0.001855342189239332,3.158342723944881,2.901209053408093
0.001855352189239332,3.131997116563882,3.210671879491729
0.001855362189239332,3.178101929480367,3.057954324321985
0.001855372189239332,3.178431249573132,3.301631126638731
0.001855382189239332,3.187981532248753,3.18851944291838
0.001855392189239332,3.216303060183327,3.128439349785006
0.001855402189239332,3.213339179353052,3.282163833891363
0.001855412189239332,3.208399377969213,3.19758180333544
0.001855422189239332,3.227499943320437,3.249606464987244
0.001855432189239332,3.193579973817497,3.027746456266176
0.001855442189239332,3.195226574278374,3.217049096082018
0.001855452189239332,3.172832808004539,3.162003647624641
0.001855462189239332,3.156696123483678,3.113671058735223
0.001855472189239332,3.170856887450854,3.087155263441642
0.001855482189239332,3.156037483299119,3.074065187284448
0.001855492189239332,3.160977284683057,3.190197657810411
0.001855502189239332,3.175138048650343,3.093532480031575
0.001855512189239332,3.166246406159442,3.113671058735255
0.001855522189239332,3.181724450495683,3.134480923396085
0.001855532189239332,3.173820768281383,3.181806583350307
0.001855542189239332,3.168551646805179,3.136830424245044
0.001855552189239332,3.187322892063995,3.107629485123955
0.001855562189239332,3.159330684221762,3.123404705108751
0.001855572189239332,3.174808728558099,3.169387793149378
0.001855582189239332,3.164270485605806,3.109643342994835
0.001855592189239332,3.163941165513465,3.119712632346133
0.001855602189239332,3.168880966897403,3.098231481728613
0.001855612189239332,3.159001364129528,3.163681862516367
0.001855622189239332,3.163941165513483,3.102259197469611
0.001855632189239332,3.16888096689736,3.122062133195004
0.001855642189239332,3.15702544357591,3.105279984275067
0.001855652189239332,3.167893006620521,3.148913571466765
0.001855662189239332,3.156366803391408,3.111321557886254
0.001855672189239332,3.163282525328907,3.112999772778246
0.001855682189239332,3.162953205236644,3.113335415756644
0.001855692189239332,3.155708163206898,3.135152209352475
0.001855702189239332,3.162294565052085,3.11501363064862
0.001855712189239332,3.157025443575885,3.10964334299424
0.001855722189239332,3.156696123483621,3.112999772778224
0.001855732189239332,3.157354763668101,3.126089848935774
0.001855742189239332,3.152414962284194,3.115684916605408
0.001855752189239332,3.156037483299082,3.103937412361452
0.001855762189239332,3.15406156274552,3.112999772778167
0.001855772189239332,3.152085642191941,3.116691845540624
0.001855782189239332,3.155378843114554,3.112664129799827
0.001855792189239332,3.150439041730617,3.100245339599074
0.001855802189239332,3.152744282376422,3.110650271929331
0.001855812189239332,3.148463121176997,3.11031462895103
0.001855822189239332,3.146487200623423,3.108636414059037
0.001855832189239332,3.148463121176995,3.092525551095911
0.001855842189239332,3.144840600162091,3.108300771080589
0.001855852189239332,3.143852639885308,3.103266126404623
0.001855862189239332,3.144511280069833,3.102930483426224
0.001855872189239332,3.141547399239481,3.090847336203902
0.001855882189239332,3.143523319793013,3.100916625555795
0.001855892189239332,3.139571478685868,3.097560195771811
0.001855902189239332,3.139571478685868,3.097224552793413
0.001855912189239332,3.139242158593607,3.091182979182264
0.001855922189239332,3.139571478685855,3.117698774475761
0.001855932189239332,3.136936917947755,3.098902767685431
0.001855942189239332,3.136936917947753,3.097560195771821
0.001855952189239332,3.135290317486448,3.082120618765503
0.001855962189239332,3.13726623804001,3.096553266836615
0.001855972189239332,3.13463167730191,3.098567124707008
0.001855982189239332,3.136278277763209,3.085141405571107
0.001855992189239332,3.131338476379269,3.084470119614218
0.001856002189239332,3.132985076840578,3.089504764290193
0.001856012189239332,3.130350516102478,3.088162192376598
0.001856022189239332,3.128374595548888,3.084805762592472
0.001856032189239332,3.129362555825659,3.074065187283821
0.001856042189239332,3.126727995087559,3.087155263441371
0.001856052189239332,3.127715955364342,3.081784975787017
0.001856062189239332,3.125410714718472,3.077085974089327
0.001856072189239332,3.12244683388812,3.072386972391764
0.001856082189239332,3.123434794164908,3.074736473240555
0.001856092189239332,3.120470913334558,3.078764188981335
0.001856102189239332,3.119812273149994,3.066345398780568
0.001856112189239332,3.118494992780945,3.070037471542951
0.001856122189239332,3.118824312873207,3.066681041758963
0.001856132189239332,3.116519072227344,3.073393901326841
0.001856142189239332,3.115201791858299,3.061982040061341
0.001856152189239332,3.114872471766037,3.063324611974936
0.001856162189239332,3.113225871304726,3.063660254953337
0.001856172189239332,3.112237911027907,3.067687970694087
0.001856182189239332,3.110591310566596,3.06030382516933
0.001856192189239332,3.109603350289809,3.059296896234133
0.001856202189239332,3.110261990474328,3.059632539212527
0.001856212189239332,3.108615390013014,3.061310754104495
0.001856222189239332,3.108944710105276,3.055269180493321
0.001856232189239332,3.107627429736226,3.055269180493321
0.001856242189239332,3.105322189090374,3.05493353751493
0.001856252189239332,3.105980829274886,3.055940466450104
0.001856262189239332,3.103346268536786,3.051577107730921
0.001856272189239332,3.102028988167733,3.050570178795719
0.001856282189239332,3.102358308259974,3.049898892838934
0.001856292189239332,3.100711707798662,3.052919679644507
0.001856302189239332,3.099394427429612,3.048891963903722
0.001856312189239332,3.100382387706391,3.04855632092531
0.001856322189239332,3.098406467152799,3.048220677946907
0.001856332189239332,3.095771906414699,3.048556320925306
0.001856342189239332,3.096101226506962,3.045871177098117
0.001856352189239332,3.096430546599208,3.043857319227707
0.001856362189239332,3.094454626045631,3.04486424816289
0.001856372189239332,3.091820065307532,3.042850390292498
0.001856382189239332,3.091161425123002,3.040836532422106
0.001856392189239332,3.090832105030709,3.038487031573295
0.001856402189239332,3.087868224200351,3.039829603486883
0.001856412189239332,3.0865509438313,3.037480102638092
0.001856422189239332,3.0881975442926,3.035130601789301
0.001856432189239332,3.085892303646759,3.032781100940472
0.001856442189239332,3.084575023277709,3.032781100940472
0.001856452189239332,3.083587063000921,3.031774172005277
0.001856462189239332,3.081940462539596,3.030767243070045
0.001856472189239332,3.082269782631844,3.028417742221263
0.001856482189239332,3.078647261616957,3.028417742221263
0.001856492189239332,3.078647261616949,3.026403884350875
0.001856502189239332,3.077988621432417,3.023718740523638
0.001856512189239332,3.077659301340152,3.021704882653248
0.001856522189239332,3.075354060694315,3.021369239674849
0.001856532189239332,3.075683380786565,3.022711811588437
0.001856542189239332,3.072719499956178,3.019019738826043
0.001856552189239332,3.070743579402603,3.019019738826043
0.001856562189239332,3.069755619125815,3.01734152393405
0.001856572189239332,3.070084939218064,3.016670237977229
0.001856582189239332,3.069096978941274,3.015663309042025
0.001856592189239332,3.067121058387698,3.012306879258038
0.001856602189239332,3.066133098110909,3.011971236279631
0.001856612189239332,3.063827857465056,3.011635593301222
0.001856622189239332,3.064815817741841,3.010964307344425
0.001856632189239332,3.06349853737279,3.010293021387627
0.001856642189239332,3.060863976634697,3.009957378409227
0.001856652189239332,3.061522616819195,3.008614806495616
0.001856662189239332,3.060863976634669,3.007607877560419
0.001856672189239332,3.059876016357883,3.004587090754832
0.001856682189239332,3.056912135527496,3.003915804798013
0.001856692189239332,3.056912135527494,3.004251447776401
0.001856702189239332,3.056253495342969,3.001230660970813
0.001856712189239332,3.054606894881659,3.000223732035611
0.001856722189239332,3.054277574789367,2.999216803100391
0.001856732189239332,3.052301654235794,2.997874231186798
0.001856742189239332,3.052630974328057,2.998881160121995
0.001856752189239332,3.048679133220882,2.995524730337978
0.001856762189239332,3.048349813128612,2.994182158424383
0.001856772189239332,3.0467032126673,2.992839586510788
0.001856782189239332,3.047361852851823,2.992839586510787
0.001856792189239332,3.045385932298241,2.991161371618771
0.001856802189239332,3.045385932298236,2.989818799705174
0.001856812189239332,3.043410011744661,2.987469298856383
0.001856822189239332,3.042751371560131,2.986462369921182
0.001856832189239332,3.040775451006528,2.984112869072363
0.001856842189239332,3.039128850545217,2.983441583115566
0.001856852189239332,3.039787490729742,2.983441583115566
0.001856862189239332,3.03748225008392,2.982099011201978
0.001856872189239332,3.036164969714835,2.98075643928835
0.001856882189239332,3.035835649622573,2.978406938439559
0.001856892189239332,3.034189049161262,2.978742581417954
0.001856902189239332,3.033530408976707,2.97807129546114
0.001856912189239332,3.031883808515397,2.976393080569144
0.001856922189239332,3.031225168330872,2.973707936741955
0.001856932189239332,3.030237208054086,2.974043579720343
0.001856942189239332,3.027931967408224,2.974043579720333
0.001856952189239332,3.027602647315961,2.97202972184994
0.001856962189239332,3.026285366946911,2.969344578022751
0.001856972189239332,3.025297406670103,2.970015863979502
0.001856982189239332,3.024638766485575,2.966659434195534
0.001856992189239332,3.022992166024263,2.967666363130731
0.001857002189239332,3.02134556556295,2.964981219303547
0.001857012189239332,3.020357605286147,2.965652505260312
0.001857022189239332,3.020686925378403,2.963638647389919
0.001857032189239332,3.018381684732566,2.961624789519526
0.001857042189239332,3.018052364640296,2.961960432497917
0.001857052189239332,3.016735084271221,2.961289146541107
0.001857062189239332,3.014429843625384,2.959275288670714
0.001857072189239332,3.013771203440859,2.95759707377872
0.001857082189239332,3.013441883348578,2.95591885888672
0.001857092189239332,3.01212460297953,2.957261430800294
0.001857102189239332,3.011465962795006,2.953233715059508
0.001857112189239332,3.009490042241433,2.952226786124307
0.001857122189239332,3.008831402056879,2.950884214210696
0.001857132189239332,3.007514121687829,2.95088421421069
0.001857142189239332,3.006526161411042,2.947527784426703
0.001857152189239332,3.004879560949732,2.948199070383484
0.001857162189239332,3.004220920765173,2.947863427405074
0.001857172189239332,3.001915680119336,2.945178283577884
0.001857182189239332,2.999939759565761,2.944506997621087
0.001857192189239332,2.99928111938122,2.943500068685864
0.001857202189239332,2.999281119381219,2.941821853793873
0.001857212189239332,2.998951799288957,2.940814924858677
0.001857222189239332,2.996975878735385,2.940479281880276
0.001857232189239332,2.995987918458553,2.938465424009854
0.001857242189239332,2.993024037628198,2.936451566139465
0.001857252189239332,2.993682677812722,2.936787209117865
0.001857262189239332,2.991377437166897,2.935780280182674
0.001857272189239332,2.989401516613293,2.933766422312254
0.001857282189239332,2.99038947689008,2.932759493377058
0.001857292189239332,2.990060156797818,2.932759493377057
0.001857302189239332,2.987425596059691,2.931081278485038
0.001857312189239332,2.986437635782906,2.929403063593052
0.001857322189239332,2.986108315690644,2.93007434954985
0.001857332189239332,2.983803075044811,2.926046633809076
0.001857342189239332,2.982815114767996,2.926382276787443
0.001857352189239332,2.982485794675729,2.92638227678744
0.001857362189239332,2.978533953568579,2.92369713296025
0.001857372189239332,2.979851233937605,2.923025847003443
0.001857382189239332,2.977545993291768,2.921347632111427
0.001857392189239332,2.977545993291768,2.920340703176231
0.001857402189239332,2.975570072738194,2.919333774241035
0.001857412189239332,2.97589939283043,2.919333774241025
0.001857422189239332,2.974252792369126,2.918998131262619
0.001857432189239332,2.974911432553651,2.916312987435429
0.001857442189239332,2.972606191907821,2.915977344457024
0.001857452189239332,2.970959591446479,2.914970415521819
0.001857462189239332,2.970959591446477,2.914970415521818
0.001857472189239332,2.968983670892902,2.913292200629824
0.001857482189239332,2.970300951261972,2.916648630413819
0.001857492189239332,2.972276871815527,2.916312987435427
0.001857502189239332,2.970300951261952,2.917319916370623
0.001857512189239332,2.969971631169688,2.920005060197811
0.001857522189239332,2.969971631169689,2.917991202327443
0.001857532189239332,2.970300951261953,2.920005060197828
0.001857542189239332,2.97128891153874,2.91933377424103
0.001857552189239332,2.970300951261959,2.918662488284233
0.001857562189239332,2.972276871815528,2.918326845305831
0.001857572189239332,2.970959591446479,2.918998131262628
0.001857582189239332,2.970630271354217,2.919333774241026
0.001857592189239332,2.969312990985171,2.919333774241028
0.001857602189239332,2.969642311077425,2.920340703176227
0.001857612189239332,2.97030095126195,2.91966941721943
0.001857622189239332,2.970959591446474,2.917991202327437
0.001857632189239332,2.96931299098516,2.921011989133003
0.001857642189239332,2.969642311077421,2.91765555934903
0.001857652189239332,2.969312990985158,2.919669417219423
0.001857662189239332,2.967337070431588,2.919669417219429
0.001857672189239332,2.968325030708366,2.920340703176339
0.001857682189239332,2.968654350800628,2.93745849507466
0.001857692189239332,2.968325030708366,2.920676346154722
0.001857702189239332,2.969642311077421,2.924704061895293
0.001857712189239332,2.96964231107741,2.910607056802663
0.001857722189239332,2.96700775033931,2.922354561046619
0.001857732189239332,2.967995710616092,2.922018918068236
0.001857742189239332,2.967995710616089,2.921347632111411
0.001857752189239332,2.966678430247045,2.91866248828422
0.001857762189239332,2.967995710616095,2.915641701478632
0.001857772189239332,2.967666390523838,2.927724848700931
0.001857782189239332,2.967666390523841,2.914970415521847
0.001857792189239332,2.968654350800627,2.919333774241028
0.001857802189239332,2.966349110154789,2.919669417219427
0.001857812189239332,2.967337070431574,2.922018918068193
0.001857822189239332,2.967666390523835,2.917991202327421
0.001857832189239332,2.967666390523835,2.916984273392225
0.001857842189239332,2.966678430247049,2.918326845305816
0.001857852189239332,2.965690469970256,2.919669417219396
0.001857862189239332,2.966678430247041,2.915641701478623
0.001857872189239332,2.966678430247041,2.916648630413819
0.001857882189239332,2.967337070431564,2.91564170147863
0.001857892189239332,2.966349110154767,2.921011989133002
0.001857902189239332,2.964702509693455,2.915977344457021
0.001857912189239332,2.966019790062505,2.91899813126261
0.001857922189239332,2.967666390523799,2.917991202327445
0.001857932189239332,2.964043869508934,2.920005060197827
0.001857942189239332,2.966019790062509,2.919333774241029
0.001857952189239332,2.966019790062513,2.917991202327436
0.001857962189239332,2.965031829785724,2.919669417219434
0.001857972189239332,2.965690469970248,2.920340703176224
0.001857982189239332,2.965690469970248,2.916984273392237
0.001857992189239332,2.964702509693465,2.896174408731587
0.001858002189239332,2.966019790062505,2.891139764055422
0.001858012189239332,2.964702509693455,2.900202124472183
0.001858022189239332,2.96404386950893,2.918998131262508
0.001858032189239332,2.964043869508935,2.925039704873831
0.001858042189239332,2.965031829785727,2.924032775938651
0.001858052189239332,2.967007750339302,2.927389205722638
0.001858062189239332,2.964702509693474,2.931416921463422
0.001858072189239332,2.96470250969346,2.927724848701002
0.001858082189239332,2.965361149877985,2.921683275089833
0.001858092189239332,2.96601979006251,2.921683275089833
0.001858102189239332,2.965690469970252,2.928731777636175
0.001858112189239332,2.966019790062509,2.927053562744241
0.001858122189239332,2.965361149877984,2.926382276787444
0.001858132189239332,2.964043869508934,2.929738706571429
0.001858142189239332,2.964702509693455,2.930409992528194
0.001858152189239332,2.964702509693453,2.92403277593862
0.001858162189239332,2.964043869508928,2.918326845305842
0.001858172189239332,2.965361149877972,2.918662488284224
0.001858182189239332,2.962067948955351,2.921011989133022
0.001858192189239332,2.963714549416662,2.919669417219424
0.001858202189239332,2.964043869508925,2.915641701478639
0.001858212189239332,2.964702509693437,2.916984273392253
0.001858222189239332,2.963055909232133,2.919669417219416
0.001858232189239332,2.963055909232133,2.916984273392226
0.001858242189239332,2.965031829785706,2.917319916370622
0.001858252189239332,2.962726589139872,2.916984273392248
