TP2/Mediciones/Vds y Vo para 08.csv

#Digilent WaveForms Oscilloscope Acquisition
#Device Name: Discovery2
#Serial Number: SN:210321B0E036
#Date Time: 2021-06-24 22:01:31.423
#Sample rate: 1e+08Hz
#Samples: 8192
#Trigger: Source: Channel 2 Type: Edge Condition: Rising Level: 2.2 V Hyst.: Auto HoldOff: 0 s
#Channel 1: Range: 50 mV/div Offset: -855 mV Attenuation: 1 X
#Channel 2: Range: 5 V/div Offset: -3 V Attenuation: 1 X
#Power Supplies: ON
#Positive Supply: ON
#Voltage: 800 mV
#Negative Supply: OFF
#Voltage: -1 V

Time (s),Channel 1 (V),Channel 2 (V)
0.001854332459016393,0.7784157899392963,12.82613771437575
0.001854342459016393,0.7761105492934579,12.81506998130617
0.001854352459016394,0.7790744301238128,12.79662375952342
0.001854362459016393,0.7787451100315503,12.81506998130605
0.001854372459016393,0.7794037502160749,12.78555602645387
0.001854382459016394,0.7797330703083183,12.77079904902752
0.001854392459016394,0.7770985095702341,12.77448829338399
0.001854402459016393,0.7787451100315465,12.76342056031442
0.001854412459016393,0.7784157899392885,12.76342056031439
0.001854422459016394,0.7794037502160671,12.71914962803585
0.001854432459016394,0.7777571497547583,12.72283887239237
0.001854442459016393,0.7787451100315458,12.7265281167489
0.001854452459016393,0.7787451100315502,12.69701416189685
0.001854462459016394,0.7787451100315484,12.67118945140062
0.001854472459016393,0.778415789939286,12.65643247397452
0.001854482459016393,0.7800623904005975,12.64905398526146
0.001854492459016394,0.7790744301238056,12.64905398526095
0.001854502459016394,0.7780864698470266,12.59740456426967
0.001854512459016393,0.779733070308339,12.57157985377399
0.001854522459016393,0.7777571497547741,12.56420136506089
0.001854532459016394,0.7790744301238194,12.56051212070411
0.001854542459016394,0.779733070308343,12.53837665456495
0.001854552459016393,0.7794037502160805,12.50886269971274
0.001854562459016394,0.7797330703083292,12.51624118842526
0.001854572459016394,0.7784157899392875,12.47565950050351
0.001854582459016393,0.7787451100315499,12.44245630129478
0.001854592459016393,0.7790744301238124,12.44245630129475
0.001854602459016394,0.7790744301238146,12.41663159079898
0.001854612459016394,0.7790744301238136,12.42401007951182
0.001854622459016393,0.7787451100315511,12.36498216980741
0.001854632459016393,0.7770985095702423,12.32808972624209
0.001854642459016394,0.7780864698470281,12.3207112375285
0.001854652459016394,0.7790744301238146,12.29488652703282
0.001854662459016393,0.7790744301238146,12.26906181653714
0.001854672459016393,0.7770985095702496,12.27275106089352
0.001854682459016394,0.780062390400603,12.25430483911065
0.001854692459016393,0.7790744301238155,12.22110163990192
0.001854702459016393,0.7784157899392903,12.19896617376276
0.001854712459016394,0.7780864698470242,12.18051995197971
0.001854722459016394,0.7784157899392876,12.16207373019708
0.001854732459016393,0.7790744301238125,12.14362750841445
0.001854742459016393,0.7780864698470303,12.13255977534485
0.001854752459016394,0.7780864698470348,12.09935657613575
0.001854762459016394,0.7800623904006055,12.08828884306616
0.001854772459016393,0.7774278296625068,12.06615337692701
0.001854782459016394,0.7790744301238008,12.04770715514404
0.001854792459016394,0.7777571497547555,12.03663942207444
0.001854802459016393,0.7774278296624929,12.02188244464834
0.001854812459016393,0.7784157899392786,12.00343622286572
0.001854822459016394,0.7794037502160734,11.98867924543926
0.001854832459016394,0.7787451100315488,11.97392226801317
0.001854842459016393,0.7780864698470238,11.95916529058707
0.001854852459016393,0.7794037502160666,11.93702982444794
0.001854862459016394,0.7770985095702323,11.92596209137808
0.001854872459016394,0.7777571497547583,11.92596209137809
0.001854882459016393,0.7807210305851207,11.94440831316072
0.001854892459016394,0.7764398693857223,11.92227284702168
0.001854902459016394,0.7787451100315637,11.9370298244477
0.001854912459016393,0.7820383109541885,11.92965133573465
0.001854922459016393,0.7741346287399092,11.97023302365634
0.001854932459016394,0.7859901520612518,11.98130075672675
0.001854942459016394,0.7718293880940249,12.03663942207456
0.001854952459016393,0.7840142315077369,12.05877488821372
0.001854962459016393,0.7777571497548167,12.0882888430659
0.001854972459016394,0.7767691894779908,12.12149204227533
0.001854982459016393,0.7813796707696656,12.15838448584058
0.001854992459016393,0.774793268924416,12.19527692940584
0.001855002459016394,0.781050350677388,12.21372315118326
0.001855012459016394,0.7797330703083206,11.6603364976985
0.001855022459016393,0.7741346287398584,9.668144545174565
0.001855032459016393,0.7751225890166338,7.591099972450689
0.001855042459016394,0.782367631046431,5.894047568413859
0.001855052459016394,0.7787451100315382,4.746692573534997
0.001855062459016393,0.7721587081862886,3.964572769951526
0.001855072459016393,0.7820383109540957,3.381672161619633
0.001855082459016394,0.7724880282785961,2.872556440407657
0.001855092459016393,0.7843435516000455,2.437225606337611
0.001855102459016393,0.7708414278172837,2.016651749693669
0.001855112459016394,0.7770985095702595,1.592388648684649
0.001855122459016394,0.7803917104928532,1.219774968675542
0.001855132459016393,0.7751225890166534,0.8471612886664354
0.001855142459016393,0.7757812292011649,0.4856153417268811
0.001855152459016394,0.7813796707696198,0.1462048609194021
0.001855162459016394,0.7754519091089132,-0.1304884658195571
0.001855172459016393,0.7794037502160629,-0.1452454432456602
0.001855182459016393,0.7747932689244231,-0.1858271311673384
0.001855192459016394,0.7800623904005918,-0.1784486424547501
0.001855202459016393,0.7770985095702294,-0.196894864237379
0.001855212459016393,0.7790744301238021,-0.1784486424547669
0.001855222459016394,0.7767691894779982,-0.1968948642373873
0.001855232459016394,0.7803917104928616,-0.1968948642374679
0.001855242459016393,0.7774278296624992,-0.2190303303766229
0.001855252459016393,0.7800623904005852,-0.2190303303766732
0.001855262459016394,0.7754519091089395,-0.27436899572478
0.001855272459016394,0.7800623904006058,-0.2596120182986819
0.001855282459016393,0.7784157899392933,-0.2485442852291044
0.001855292459016393,0.7780864698470248,-0.2227195747334908
0.001855302459016394,0.7767691894779888,-0.2374765521593708
0.001855312459016393,0.7813796707696614,-0.2300980634463228
0.001855322459016393,0.776769189477995,-0.2190303303767487
0.001855332459016394,0.7794037502160641,-0.2227195747331871
0.001855342459016394,0.7777571497547622,-0.2190303303766849
0.001855352459016393,0.7794037502160747,-0.2227195747332106
0.001855362459016393,0.7761105492934632,-0.233787307802768
0.001855372459016394,0.7780864698470094,-0.2227195747333549
0.001855382459016394,0.7764398693857031,-0.2411657965159557
0.001855392459016393,0.7807210305851154,-0.2374765521594296
0.001855402459016393,0.7764398693857459,-0.2485442852289332
0.001855412459016394,0.7790744301238031,-0.2374765521595218
0.001855422459016393,0.7767691894779657,-0.2596120182986768
0.001855432459016393,0.777427829662488,-0.2633012626552193
0.001855442459016394,0.7770985095702395,-0.2485442852289903
0.001855452459016394,0.7784157899392832,-0.2411657965159792
0.001855462459016393,0.7774278296624956,-0.2485442852290305
0.001855472459016393,0.7787451100315382,-0.174759398098773
0.001855482459016394,0.7764398693857172,-0.08990677789660051
0.001855492459016394,0.7790744301238125,0.04290601893836884
0.001855502459016393,0.7767691894779751,0.2199897480516075
0.001855512459016394,0.778745110031533,0.3933842328123535
0.001855522459016394,0.7770985095702415,0.5962926724211554
0.001855532459016393,0.780062390400604,0.7733764015343945
0.001855542459016393,0.7777571497547737,0.9504601306476331
0.001855552459016394,0.777427829662501,1.190261013826206
0.001855562459016394,0.7784157899392841,1.385790964722114
0.001855572459016393,0.7777571497547591,1.596077893044085
0.001855582459016393,0.7774278296624955,1.79160784394
0.001855592459016394,0.7787451100315398,2.016651749692639
0.001855602459016394,0.777098509570229,2.245384899797239
0.001855612459016393,0.7790744301238038,2.474118049901839
0.001855622459016394,0.7784157899392583,2.706540444368173
0.001855632459016394,0.7757812292011823,2.953719816255503
0.001855642459016393,0.7784157899392823,3.223034654281887
0.001855652459016393,0.7767691894779756,3.492349492308271
0.001855662459016394,0.7770985095702307,3.794867529549973
0.001855672459016394,0.7774278296624955,4.141656499063525
0.001855682459016393,0.7787451100315455,4.543784133924838
0.001855692459016393,0.7784157899392889,5.027075144629424
0.001855702459016394,0.7784157899392922,5.617354241685791
0.001855712459016394,0.7794037502160791,6.266661248434396
0.001855722459016393,0.7794037502160791,7.052470296374393
0.001855732459016394,0.7797330703083138,7.886239520968038
0.001855742459016394,0.776769189477969,8.845443053665036
0.001855752459016393,0.7780864698470189,9.874742229135736
0.001855762459016393,0.7767691894779738,10.9741370473803
0.001855772459016394,0.7787451100315557,12.15469524149436
0.001855782459016394,0.7794037502160805,13.41641681142633
0.001855792459016393,0.7800623904006055,14.73716629106256
0.001855802459016393,0.7948817945523592,16.02471257148961
0.001855812459016394,0.8143116799962549,17.25323094223895
0.001855822459016393,0.8390106869159413,18.28621936206617
0.001855832459016393,0.8610751330975278,19.07940689871922
0.001855842459016394,0.8818222989105086,19.5368731989373
0.001855852459016394,0.9009228642616909,19.684442973197
0.001855862459016393,0.909814506752774,19.50735924408384
0.001855872459016393,0.918706149243861,19.04251445516224
0.001855882459016394,0.9190354693361499,18.36369349354674
0.001855892459016394,0.9127783875831399,17.46720711490994
0.001855902459016393,0.8940071423241782,16.00257710536919
0.001855912459016393,0.8709547358658217,14.54901482889798
0.001855922459016394,0.8538300910676897,13.61563600667438
0.001855932459016393,0.8261672033176409,13.15448046210865
0.001855942459016393,0.8264965234098908,13.22826534923892
0.001855952459016394,0.8120064393504214,13.80378746886794
0.001855962459016394,0.8291310841479999,14.54901482888604
0.001855972459016393,0.8268258435021625,15.26472823405205
0.001855982459016393,0.8353881659009624,15.64472040277497
0.001855992459016394,0.8406572873773089,15.90665675209455
0.001856002459016394,0.8469143691302881,16.12432216912949
0.001856012459016393,0.8472436892225507,16.2829596764601
0.001856022459016393,0.8581112522671647,16.37150154101704
0.001856032459016394,0.8511955303298026,16.41577247329625
0.001856042459016393,0.8653562942970894,16.36412305230489
0.001856052459016393,0.8584405723595868,16.26082421032219
0.001856062459016394,0.8597578527285975,16.08742972556138
0.001856072459016394,0.8594285326362995,15.82180413189132
0.001856082459016393,0.8479023294071124,15.49346138416053
0.001856092459016393,0.8492196097761272,15.30899916633384
0.001856102459016394,0.8423038878385712,15.23890352355809
0.001856112459016394,0.840327967285004,15.27210672276692
0.001856122459016393,0.8439504882998914,15.37909480910617
0.001856132459016393,0.8403279672850369,15.55248929386258
0.001856142459016394,0.8426332079308633,15.69636982377028
0.001856152459016393,0.845267768668963,15.80335791010953
0.001856162459016393,0.8432918481153924,15.87345355288356
0.001856172459016394,0.8482316494993154,15.93985995130186
0.001856182459016394,0.8449384485767095,15.93617070694523
0.001856192459016393,0.8475730093148093,15.89927826337997
0.001856202459016393,0.847243689222555,15.84762884238865
0.001856212459016394,0.8446091284844478,15.80704715446585
0.001856222459016394,0.8462557289457575,15.75908697783101
0.001856232459016393,0.8449384485767076,15.70743755683965
0.001856242459016394,0.8416452476540963,15.70005906812646
0.001856252459016394,0.8452677686689457,15.71481604555243
0.001856262459016393,0.8413159275617959,15.70374831248285
0.001856272459016393,0.8455970887612008,15.72219453426545
0.001856282459016394,0.8426332079308529,15.74433000040474
0.001856292459016394,0.8429625280231127,15.72957302297868
0.001856302459016393,0.8423038878385877,15.72957302297868
0.001856312459016393,0.8409866074695399,15.71112680119611
0.001856322459016394,0.8423038878385833,15.72219453426548
0.001856332459016394,0.8419745677463203,15.70743755683938
0.001856342459016393,0.8409866074695329,15.70005906812633
0.001856352459016393,0.8436211682076133,15.67423435763076
0.001856362459016394,0.8396693271004702,15.67792360198703
0.001856372459016393,0.8396693271004702,15.68161284634355
0.001856382459016393,0.8383520467314219,15.67792360198704
0.001856392459016394,0.8386813668236712,15.70374831248278
0.001856402459016394,0.8380227266391489,15.69636982376974
0.001856412459016393,0.8383520467314112,15.69268057941322
0.001856422459016393,0.8370347663623673,15.71112680119576
0.001856432459016394,0.8386813668236665,15.73326226733511
0.001856442459016394,0.8370347663623551,15.7148160455525
0.001856452459016393,0.83769340654688,15.73326226733512
0.001856462459016394,0.8386813668236494,15.73326226733549
0.001856472459016394,0.836046806085564,15.75908697783107
0.001856482459016393,0.836705446270089,15.7627762221876
0.001856492459016393,0.8353881659010427,15.75170848911805
0.001856502459016394,0.8350588458087708,15.75170848911799
0.001856512459016394,0.8353881659010317,15.75539773347453
0.001856522459016393,0.8350588458087693,15.76277622218758
0.001856532459016393,0.8344002056242456,15.74433000040504
0.001856542459016394,0.8344002056242315,15.75170848911803
0.001856552459016393,0.8330829252551815,15.76277622218761
0.001856562459016393,0.833412245347444,15.75539773347455
0.001856572459016394,0.8317656448861304,15.76646546654397
0.001856582459016394,0.83242428507065,15.74801924476137
0.001856592459016393,0.831765644886125,15.73695151169179
0.001856602459016393,0.8327536051629094,15.74801924476133
0.001856612459016394,0.8317656448861213,15.7332622673352
0.001856622459016394,0.8314363247938593,15.72957302297867
0.001856632459016393,0.8314363247938593,15.72588377862214
0.001856642459016393,0.8317656448861205,15.72957302297864
0.001856652459016394,0.8311070047015929,15.71850528990897
0.001856662459016393,0.8307776846093304,15.70743755683939
0.001856672459016393,0.8301190444248056,15.71481604555244
0.001856682459016394,0.8284724439634983,15.71481604555242
0.001856692459016394,0.8304483645170625,15.70743755683938
0.001856702459016393,0.829460404240275,15.70374831248285
0.001856712459016393,0.8288017640557493,15.71850528990891
0.001856722459016394,0.8261672033176335,15.71481604555234
0.001856732459016394,0.8268258435021578,15.69636982376977
0.001856742459016393,0.8271551635944204,15.70743755683934
0.001856752459016393,0.8264965234098994,15.71850528990892
0.001856762459016394,0.8255085631331051,15.73326226733516
0.001856772459016393,0.8264965234098924,15.72219453426559
0.001856782459016393,0.8258378832253682,15.7406407560482
0.001856792459016394,0.8245206028562905,15.73695151169181
0.001856802459016394,0.8228740023949841,15.74064075604831
0.001856812459016393,0.8228740023949841,15.73695151169178
0.001856822459016393,0.8232033224872459,15.73695151169177
0.001856832459016394,0.8225446823027173,15.75170848911796
0.001856842459016394,0.8222153622104548,15.75170848911796
0.001856852459016393,0.8218860421181923,15.75170848911796
0.001856862459016393,0.8225446823027128,15.74433000040494
0.001856872459016394,0.822215362210448,15.7406407560483
0.001856882459016393,0.8208980818413981,15.73695151169177
0.001856892459016393,0.8185928411955623,15.7406407560483
0.001856902459016394,0.8192514813800904,15.73326226733516
0.001856912459016394,0.8208980818413945,15.72588377862218
0.001856922459016393,0.8199101215646069,15.74064075604828
0.001856932459016393,0.820898081841389,15.74801924476135
0.001856942459016394,0.8202394416568639,15.7332622673352
0.001856952459016394,0.8195808014723386,15.72957302297865
0.001856962459016393,0.8182635211032886,15.70374831248297
0.001856972459016394,0.8172755608264888,15.69636982376967
0.001856982459016394,0.8172755608264888,15.68899133505669
0.001856992459016393,0.8172755608264888,15.69636982376974
0.001857002459016393,0.8166169206419643,15.69636982376975
0.001857012459016394,0.8166169206419599,15.68161284634366
0.001857022459016394,0.8166169206419581,15.69268057941324
0.001857032459016393,0.8159582804574331,15.70743755683934
0.001857042459016393,0.8166169206419539,15.69268057941334
0.001857052459016394,0.8143116799961179,15.69268057941312
0.001857062459016394,0.8156289603651657,15.68161284634357
0.001857072459016393,0.8146410000883784,15.69268057941315
0.001857082459016393,0.8133237197193299,15.69636982376971
0.001857092459016394,0.8139823599038459,15.70374831248278
0.001857102459016393,0.8143116799961084,15.68899133505667
0.001857112459016393,0.8133237197193228,15.70374831248274
0.001857122459016394,0.8123357594425109,15.70374831248278
0.001857132459016394,0.8110184790734628,15.6963698237698
0.001857142459016393,0.8103598388889378,15.71481604555243
0.001857152459016393,0.8097011987044128,15.71481604555249
0.001857162459016394,0.810359838888942,15.71481604555237
0.001857172459016394,0.8113477991657289,15.69636982376976
0.001857182459016393,0.8110184790734664,15.71481604555239
0.001857192459016394,0.8097011987044137,15.69268057941332
0.001857202459016394,0.8103598388889267,15.70374831248274
0.001857212459016393,0.8083839183353518,15.68161284634359
0.001857222459016393,0.8090425585198732,15.70005906812616
0.001857232459016394,0.8073959580585558,15.7074375568393
0.001857242459016394,0.8073959580585528,15.69636982376972
0.001857252459016393,0.8060786776895029,15.68530209070015
0.001857262459016393,0.8067373178740206,15.68161284634359
0.001857272459016394,0.8073959580585579,15.68899133505658
0.001857282459016394,0.8077252781508198,15.67792360198701
0.001857292459016393,0.8067373178740324,15.68161284634354
0.001857302459016394,0.8060786776894916,15.66316662456078
0.001857312459016394,0.8054200375049693,15.65947738020426
0.001857322459016393,0.8054200375049693,15.65578813584773
0.001857332459016393,0.8031147968591361,15.67423435763032
0.001857342459016394,0.8044320772281651,15.65947738020436
0.001857352459016394,0.8031147968591152,15.67054511327387
0.001857362459016393,0.8017975164900653,15.64840964713471
0.001857372459016393,0.8014681963977992,15.65209889149114
0.001857382459016394,0.8024561566745835,15.64472040277806
0.001857392459016393,0.8014681963977961,15.64103115842153
0.001857402459016393,0.8024561566745835,15.65209889149111
0.001857412459016394,0.8004802361210159,15.64103115842157
0.001857422459016394,0.8017975164900524,15.64472040277808
0.001857432459016393,0.7998215959364774,15.64472040277808
0.001857442459016393,0.8011388763055208,15.64472040277808
0.001857452459016394,0.8014681963977859,15.64840964713457
0.001857462459016394,0.8001509160287389,15.64103115842154
0.001857472459016393,0.8004802361210014,15.64472040277807
0.001857482459016393,0.7978456753829136,15.64472040277808
0.001857492459016394,0.7968577151060999,15.64103115842143
0.001857502459016393,0.7978456753828869,15.62258493663881
0.001857512459016393,0.7958697548293132,15.63365266970837
0.001857522459016394,0.796857715106094,15.62996342535193
0.001857532459016394,0.796857715106088,15.63365266970839
0.001857542459016393,0.7952111146447756,15.61889569228228
0.001857552459016393,0.7955404347370336,15.61151720356921
0.001857562459016394,0.7955404347370291,15.62627418099508
0.001857572459016394,0.7945524744602435,15.5893817374299
0.001857582459016393,0.794881794552506,15.61151720356905
0.001857592459016393,0.7935645141834634,15.5893817374301
0.001857602459016394,0.7935645141834461,15.60413871485596
0.001857612459016393,0.7929058739989211,15.58569249307333
0.001857622459016393,0.7932351940911831,15.58569249307332
0.001857632459016394,0.7942231543679665,15.59307098178625
0.001857642459016394,0.7929058739989144,15.57462476000364
0.001857652459016393,0.7909299534453397,15.56355702693407
0.001857662459016393,0.7915885936298575,15.5783140043601
0.001857672459016394,0.790929953445339,15.57093551564702
