TP2/Mediciones/Vds y Vo para 3.csv

#Digilent WaveForms Oscilloscope Acquisition
#Device Name: Discovery2
#Serial Number: SN:210321B0E036
#Date Time: 2021-06-24 22:05:40.454
#Sample rate: 1e+08Hz
#Samples: 8192
#Trigger: Source: Channel 2 Type: Edge Condition: Rising Level: 7.5 V Hyst.: Auto HoldOff: 0 s
#Channel 1: Range: 200 mV/div Offset: -2.75 V Attenuation: 1 X
#Channel 2: Range: 5 V/div Offset: -18.5 V Attenuation: 1 X
#Power Supplies: ON
#Positive Supply: ON
#Voltage: 3 V
#Negative Supply: OFF
#Voltage: -1 V

Time (s),Channel 1 (V),Channel 2 (V)
0.001856540506329114,2.956715915818029,0.3103136310505946
0.001856550506329114,2.958033196187079,0.2734211874853184
0.001856560506329114,2.955398635448987,0.284488920554594
0.001856570506329114,2.957045235910299,0.284488920554594
0.001856580506329114,2.956057275633512,0.2660426987719726
0.001856590506329114,2.956386595725774,0.2807996761980081
0.001856600506329114,2.956715915818036,0.2771104318414829
0.001856610506329114,2.957045235910299,0.2734211874849576
0.001856620506329114,2.956057275633514,0.2771104318414661
0.001856630506329114,2.955727955541244,0.2697319431284291
0.001856640506329114,2.956057275633505,0.2734211874849442
0.001856650506329114,2.955398635448981,0.269731943128419
0.001856660506329114,2.955398635448978,0.2734211874849107
0.001856670506329114,2.956386595725774,0.2771104318414359
0.001856680506329114,2.957045235910299,0.2660426987718602
0.001856690506329114,2.956386595725775,0.2623534544153316
0.001856700506329114,2.955398635448969,0.2439072326327706
0.001856710506329114,2.954410675172185,0.2660426987718786
0.001856720506329114,2.954739995264448,0.2734211874849291
0.001856730506329114,2.956057275633495,0.2734211874849493
0.001856740506329114,2.955069315356713,0.2697319431283753
0.001856750506329114,2.955069315356713,0.2660426987718703
0.001856760506329114,2.95473999526445,0.277110431841446
0.001856770506329114,2.95506931535671,0.2697319431284794
0.001856780506329114,2.955069315356723,0.2660426987718921
0.001856790506329114,2.957045235910298,0.2734211874849425
0.001856800506329114,2.955069315356726,0.2512857213458144
0.001856810506329114,2.957045235910291,0.2549749657022776
0.001856820506329114,2.956057275633507,0.2623534544152611
0.001856830506329114,2.95638659572577,0.2475964769891566
0.001856840506329114,2.956386595725771,0.2549749657021467
0.001856850506329114,2.956386595725764,0.2402179882760726
0.001856860506329114,2.955398635448977,0.2475964769891096
0.001856870506329114,2.954739995264452,0.2402179882760592
0.001856880506329114,2.955398635448971,0.258664210058677
0.001856890506329114,2.95473999526445,0.2512857213457003
0.001856900506329114,2.955069315356713,0.2586642100587508
0.001856910506329114,2.954739995264451,0.2402179882761481
0.001856920506329114,2.955727955541253,0.2439072326325374
0.001856930506329114,2.957045235910291,0.2402179882760122
0.001856940506329114,2.953752034987666,0.2365287439194834
0.001856950506329114,2.953752034987655,0.2328394995629582
0.001856960506329114,2.954410675172189,0.2254610108498557
0.001856970506329114,2.955069315356712,0.2291502552063843
0.001856980506329114,2.953752034987662,0.2365287439194314
0.001856990506329114,2.954739995264449,0.2254610108499848
0.001857000506329114,2.954739995264447,0.2402179882759551
0.001857010506329114,2.954410675172185,0.2254610108498506
0.001857020506329114,2.955398635448971,0.2328394995628709
0.001857030506329114,2.955727955541225,0.2365287439195035
0.001857040506329114,2.953752034987656,0.240217988276039
0.001857050506329114,2.954081355079918,0.2475964769890895
0.001857060506329114,2.955069315356704,0.2254610108500419
0.001857070506329114,2.954410675172195,0.2291502552062836
0.001857080506329114,2.956057275633505,0.2143932777802011
0.001857090506329114,2.953752034987668,0.2402179882758813
0.001857100506329114,2.954081355079923,0.2512857213455896
0.001857110506329114,2.954410675172189,0.2439072326325089
0.001857120506329114,2.955727955541239,0.2291502552064044
0.001857130506329114,2.95375203498767,0.225461010849859
0.001857140506329114,2.954739995264438,0.2328394995628038
0.001857150506329114,2.953422714895392,0.2180825221367364
0.001857160506329114,2.954081355079917,0.2180825221367364
0.001857170506329114,2.954410675172181,0.2180825221367364
0.001857180506329114,2.953752034987659,0.2254610108497651
0.001857190506329114,2.954410675172184,0.2143932777801894
0.001857200506329114,2.951776114434084,0.2217717664932398
0.001857210506329114,2.95210543452637,0.1701223455020237
0.001857220506329114,2.955727955541228,0.2107040334234727
0.001857230506329114,2.952434754618603,0.1701223455016915
0.001857240506329114,2.951776114434074,0.1848793229276918
0.001857250506329114,2.950458834065036,0.1996363003537124
0.001857260506329114,2.95375203498765,0.1627438567885535
0.001857270506329114,2.950788154157288,0.1811900785711833
0.001857280506329114,2.950129513972753,0.2623534544144961
0.001857290506329114,2.95539863544896,0.2254610108497214
0.001857300506329114,2.952434754618598,0.2070147890670917
0.001857310506329114,2.953752034987647,0.218082522136671
0.001857320506329114,2.951776114434081,0.2439072326322874
0.001857330506329114,2.953093394803132,0.214393277780243
0.001857340506329114,2.954739995264445,0.229150255206344
0.001857350506329114,2.950458834065046,0.218082522136827
0.001857360506329114,2.952434754618608,0.229150255206292
0.001857370506329114,2.953752034987655,0.218082522136723
0.001857380506329114,2.953422714895392,0.2107040334236689
0.001857390506329114,2.953422714895391,0.2143932777801524
0.001857400506329114,2.951446794341817,0.2107040334236186
0.001857410506329114,2.953752034987654,0.2070147890670934
0.001857420506329114,2.952105434526344,0.2143932777801424
0.001857430506329114,2.95144679434182,0.2107040334236387
0.001857440506329114,2.953093394803125,0.2107040334236924
0.001857450506329114,2.952764074710863,0.2254610108497969
0.001857460506329114,2.951446794341816,0.2033255447107359
0.001857470506329114,2.952434754618595,0.2217717664931761
0.001857480506329114,2.952105434526335,0.2070147890670615
0.001857490506329114,2.953752034987648,0.1848793229279065
0.001857500506329114,2.952764074710872,0.2143932777798807
0.001857510506329114,2.950788154157288,0.1996363003539976
0.001857520506329114,2.953093394803124,0.1996363003539976
0.001857530506329114,2.951117474249553,0.1885685672844284
0.001857540506329114,2.951446794341816,0.1996363003540983
0.001857550506329114,2.952764074710857,0.2107040334236153
0.001857560506329114,2.951117474249544,0.2033255447105648
0.001857570506329114,2.951776114434063,0.210704033423575
0.001857580506329114,2.952105434526338,0.22546101084975
0.001857590506329114,2.952764074710863,0.2143932777801927
0.001857600506329114,2.954410675172176,0.2180825221367179
0.001857610506329114,2.952764074710855,0.218082522136978
0.001857620506329114,2.952105434526335,0.2402179882762068
0.001857630506329114,2.952434754618597,0.2771104318414628
0.001857640506329114,2.951776114434073,0.3472060746154228
0.001857650506329114,2.953422714895374,0.4578834053138921
0.001857660506329114,2.951446794341805,0.6386563787836069
0.001857670506329114,2.951776114434068,0.8009831304707424
0.001857680506329114,2.951776114434069,0.9743776152274184
0.001857690506329114,2.953093394803108,1.166218321771009
0.001857700506329114,2.950458834065013,1.391262227519054
0.001857710506329114,2.952764074710851,1.586792178414923
0.001857720506329114,2.951776114434079,1.808146839806344
0.001857730506329114,2.952764074710849,2.022123012489427
0.001857740506329114,2.949800193880486,2.221342207741818
0.001857750506329114,2.952434754618579,2.464832335272463
0.001857760506329114,2.950788154157281,2.700943974095385
0.001857770506329114,2.951446794341805,2.944434101626058
0.001857780506329114,2.951776114434068,3.176856496087184
0.001857790506329114,2.950788154157284,3.446171334113451
0.001857800506329114,2.95111747424954,3.697039950362995
0.001857810506329114,2.95111747424954,3.988490254528541
0.001857820506329114,2.95111747424954,4.29838678047671
0.001857830506329114,2.950788154157286,4.623040283858874
0.001857840506329114,2.95177611443406,5.032546407433758
0.001857850506329114,2.949800193880485,5.556419106060422
0.001857860506329114,2.950129513972744,6.216793845878357
0.001857870506329114,2.951117474249526,6.987845916409434
0.001857880506329114,2.949470873788219,7.943360204750021
0.001857890506329114,2.950129513972744,9.075958222203443
0.001857900506329114,2.949800193880485,10.41884316797807
0.001857910506329114,2.949800193880478,12.07531388409421
0.001857920506329114,2.949141553695953,14.18556165602737
0.001857930506329114,2.948482913511428,17.17016034045675
0.001857940506329114,2.959679796648824,20.81882300913967
0.001857950506329114,3.000515488089525,24.92126273359627
0.001857960506329114,3.078893670047997,28.99787774755729
0.001857970506329114,3.160894373021349,32.51003837497088
0.001857980506329114,3.243883036273237,37.04780893358289
0.001857990506329114,3.319297337401297,40.86986608693422
0.001858000506329114,3.372976512440082,40.55628031662953
0.001858010506329114,3.418093365080053,37.69342669597608
0.001858020506329114,3.435547329970527,35.3987167061585
0.001858030506329114,3.436864610339577,32.6391619274772
0.001858040506329114,3.379233594193642,27.88372595191543
0.001858050506329114,3.307112493986386,21.9366640490876
0.001858060506329114,3.206669865846445,17.44316442284864
0.001858070506329114,3.134878085733256,15.26282100814288
0.001858080506329114,3.118412081120006,15.42145851546817
0.001858090506329114,3.054194663128999,17.14802487435468
0.001858100506329114,3.143769728224149,19.85593023204511
0.001858110506329114,3.097664915307401,22.82577193904838
0.001858120506329114,3.164187573943961,24.31991590344737
0.001858130506329114,3.155954571638241,24.92495197794024
0.001858140506329114,3.197119583171052,25.6775578266715
0.001858150506329114,3.180653578557953,26.09075319460255
0.001858160506329114,3.232686153135158,26.42278518669481
0.001858170506329114,3.183288139296283,26.459677630259
0.001858180506329114,3.270887283838104,26.20143052530219
0.001858190506329114,3.193167742064534,25.9468726647019
0.001858200506329114,3.246188276918227,25.27911943615662
0.001858210506329114,3.212597627507467,24.16865688484235
0.001858220506329114,3.18921590095683,23.05450508917155
0.001858230506329114,3.198766183632293,22.57490332282031
0.001858240506329114,3.158918452468474,22.43840128162392
0.001858250506329114,3.17307921643576,22.60072803331105
0.001858260506329114,3.180982898650063,23.07664055530274
0.001858270506329114,3.151673410438983,23.69274436285282
0.001858280506329114,3.196131622894204,24.08749350900044
0.001858290506329114,3.17307921643583,24.28302345989631
0.001858300506329114,3.182300179019092,24.40845776801838
0.001858310506329114,3.193826382248263,24.47855341079363
0.001858320506329114,3.171432615974477,24.44535021158483
0.001858330506329114,3.195143662617376,24.36787608009779
0.001858340506329114,3.181970858926849,24.32360514781738
0.001858350506329114,3.176701737450712,24.18710310662587
0.001858360506329114,3.183946779480487,24.03953333236484
0.001858370506329114,3.169786015513219,24.00264088879948
0.001858380506329114,3.176043097266152,24.03215484365181
0.001858390506329114,3.176701737450638,24.05429030979107
0.001858400506329114,3.164846214129188,24.10962897513895
0.001858410506329114,3.181641538834497,24.18710310662594
0.001858420506329114,3.167151454775052,24.24613101633152
0.001858430506329114,3.173737856620298,24.26826648247064
0.001858440506329114,3.176043097266135,24.26088799375759
0.001858450506329114,3.168798055236408,24.24982026068804
0.001858460506329114,3.173737856620273,24.23137403890496
0.001858470506329114,3.169127375328598,24.18710310662664
0.001858480506329114,3.165834174405972,24.16865688484399
0.001858490506329114,3.172749896343409,24.15758915177384
0.001858500506329114,3.161882333298797,24.11331821949562
0.001858510506329114,3.169456695420834,24.10225048642604
0.001858520506329114,3.163528933760152,24.09487199771298
0.001858530506329114,3.16319961366785,24.09118275335647
0.001858540506329114,3.16550485431368,24.10593973078254
0.001858550506329114,3.16023573283748,24.09118275335644
0.001858560506329114,3.162870293575566,24.09118275335652
0.001858570506329114,3.162540973483275,24.10593973078249
0.001858580506329114,3.155954571638025,24.09118275335639
0.001858590506329114,3.161553013206471,24.07273653157376
0.001858600506329114,3.156942531914796,24.0911827533564
0.001858610506329114,3.155295931453488,24.09487199771295
0.001858620506329114,3.155625251545751,24.10593973078252
0.001858630506329114,3.152332050623139,24.12438595256512
0.001858640506329114,3.153649330992155,24.15758915177427
0.001858650506329114,3.152002730530842,24.16496764048732
0.001858660506329114,3.149697489885005,24.17234612920037
0.001858670506329114,3.150685450161761,24.18710310662672
0.001858680506329114,3.148380209515933,24.19817083969625
0.001858690506329114,3.148050889423671,24.19817083969625
0.001858700506329114,3.149697489884979,24.20186008405277
0.001858710506329114,3.145416328685579,24.19079235098288
0.001858720506329114,3.148380209515921,24.1575891517742
0.001858730506329114,3.142123127762933,24.14652141870462
0.001858740506329114,3.144428368408739,24.12807519692202
0.001858750506329114,3.144757688500999,24.10593973078239
0.001858760506329114,3.140147207209324,24.07642577593018
0.001858770506329114,3.141464487578373,24.0653580428606
0.001858780506329114,3.141135167486091,24.05797955414725
0.001858790506329114,3.138500606748003,24.03953333236461
0.001858800506329114,3.138829926840266,24.01739786622545
0.001858810506329114,3.134548765640862,24.04691182107757
0.001858820506329114,3.137183326378916,24.04322257672111
0.001858830506329114,3.13356080536403,24.02477635493856
0.001858840506329114,3.130596924533667,24.05429030979077
0.001858850506329114,3.132902165179483,24.06904728721693
0.001858860506329114,3.130267604441385,24.10962897513904
0.001858870506329114,3.129279644164598,24.09856124206946
0.001858880506329114,3.129279644164598,24.12807519692167
0.001858890506329114,3.125657123149711,24.16127839613067
0.001858900506329114,3.12796236379553,24.15021066306118
0.001858910506329114,3.12532780305743,24.16496764048729
0.001858920506329114,3.123022562411592,24.18710310662642
0.001858930506329114,3.123681202596077,24.18341386227017
0.001858940506329114,3.120388001673459,24.19817083969623
0.001858950506329114,3.121046641857984,24.19079235098318
0.001858960506329114,3.119400041396681,24.20186008405269
0.001858970506329114,3.117753440935344,24.20554932840922
0.001858980506329114,3.118082761027607,24.18341386227007
0.001858990506329114,3.115777520381771,24.19448159533963
0.001859000506329114,3.115448200289476,24.21292781712222
0.001859010506329114,3.113801599828163,24.1907923509831
0.001859020506329114,3.11215499936685,24.176035373557
0.001859030506329114,3.114130919920417,24.16865688484393
0.001859040506329114,3.110837718997792,24.15389990741762
0.001859050506329114,3.111167039090053,24.14652141870457
0.001859060506329114,3.110179078813265,24.13914292999152
0.001859070506329114,3.108861798444217,24.14283217434799
0.001859080506329114,3.107544518075143,24.12438595256521
0.001859090506329114,3.10721519798288,24.10962897513911
0.001859100506329114,3.103592676967997,24.11331821949563
0.001859110506329114,3.104580637244741,24.10593973078253
0.001859120506329114,3.101946076506652,24.10225048642602
0.001859130506329114,3.102604716691177,24.10593973078255
0.001859140506329114,3.101287436322132,24.08380426464346
0.001859150506329114,3.099970155953051,24.08380426464319
0.001859160506329114,3.098323555491739,24.07273653157363
0.001859170506329114,3.09700627512269,24.0690472872171
0.001859180506329114,3.0960183148459,24.07273653157359
0.001859190506329114,3.095030354569085,24.08749350899978
0.001859200506329114,3.092725113923248,24.08011502028673
0.001859210506329114,3.093713074200032,24.10225048642586
0.001859220506329114,3.092395793830969,24.080115020287
0.001859230506329114,3.091078513461921,24.10962897513912
0.001859240506329114,3.090090553185133,24.11331821949564
0.001859250506329114,3.088114632631561,24.11331821949565
0.001859260506329114,3.085809391985679,24.12069670820885
0.001859270506329114,3.083833471432106,24.13545368563494
0.001859280506329114,3.083504151339843,24.13914292999147
0.001859290506329114,3.081528230786265,24.14652141870485
0.001859300506329114,3.082516191063041,24.1723461292004
0.001859310506329114,3.080869590601728,24.16865688484387
0.001859320506329114,3.079552310232678,24.16496764048735
0.001859330506329114,3.078564349955863,24.15758915177432
0.001859340506329114,3.077247069586813,24.16865688484386
0.001859350506329114,3.075929789217763,24.16496764048733
0.001859360506329114,3.075600469125498,24.16865688484383
0.001859370506329114,3.074941828940951,24.17603537355687
0.001859380506329114,3.072636588295115,24.16127839613077
0.001859390506329114,3.071648628018327,24.15758915177425
0.001859400506329114,3.070002027557,24.14652141870446
0.001859410506329114,3.070002027556989,24.13545368563485
0.001859420506329114,3.067696786911152,24.11700746385223
0.001859430506329114,3.066050186449838,24.1170074638522
0.001859440506329114,3.068355427095659,24.11331821949565
0.001859450506329114,3.066050186449823,24.11331821949563
0.001859460506329114,3.064732906080774,24.10225048642605
0.001859470506329114,3.062098345342679,24.10962897513904
0.001859480506329114,3.062098345342651,24.09856124206944
0.001859490506329114,3.061769025250388,24.0948719977129
0.001859500506329114,3.060122424789076,24.06904728721722
0.001859510506329114,3.058146504235477,24.07273653157385
0.001859520506329114,3.057817184143212,24.09487199771285
0.001859530506329114,3.056829223866424,24.08011502028675
0.001859540506329114,3.054523983220589,24.08011502028673
0.001859550506329114,3.054194663128296,24.09487199771285
0.001859560506329114,3.052877382759245,24.08749350899988
0.001859570506329114,3.05090146220567,24.11331821949556
0.001859580506329114,3.049254861744356,24.11700746385216
0.001859590506329114,3.047278941190758,24.09487199771298
0.001859600506329114,3.047937581375283,24.10593973078256
0.001859610506329114,3.045303020637183,24.11700746385214
0.001859620506329114,3.046949621098463,24.09856124206957
0.001859630506329114,3.044315060360373,24.10962897513907
0.001859640506329114,3.04398574026811,24.10225048642602
0.001859650506329114,3.042009819714539,24.1206967082086
0.001859660506329114,3.040692539345465,24.12069670820861
0.001859670506329114,3.04069253934546,24.10225048642605
0.001859680506329114,3.037728658515098,24.12438595256521
0.001859690506329114,3.038057978607347,24.11331821949576
0.001859700506329114,3.03739933842281,24.10962897513893
0.001859710506329114,3.035423417869235,24.08011502028674
0.001859720506329114,3.033118177223398,24.07273653157367
0.001859730506329114,3.033118177223368,24.06904728721697
0.001859740506329114,3.031471576762068,24.0579795541474
0.001859750506329114,3.033447497315644,24.04691182107782
0.001859760506329114,3.030483616485292,24.0690472872169
0.001859770506329114,3.026531775378102,24.04691182107774
0.001859780506329114,3.027519735654885,24.03953333236469
0.001859790506329114,3.02554381510131,24.03215484365164
0.001859800506329114,3.024226534732258,24.02108711058208
0.001859810506329114,3.024555854824496,24.03215484365156
0.001859820506329114,3.022250614178658,24.02477635493851
0.001859830506329114,3.020933333809608,24.02477635493851
0.001859840506329114,3.019286733348268,24.02846559929499
0.001859850506329114,3.01829877307148,24.02108711058192
0.001859860506329114,3.01698149270243,24.00633013315581
0.001859870506329114,3.016652172610164,24.00264088879926
0.001859880506329114,3.015664212333359,24.00633013315577
0.001859890506329114,3.014346931964307,24.00633013315577
0.001859900506329114,3.011383051133944,24.00633013315577
0.001859910506329114,3.012371011410714,23.99526240008625
0.001859920506329114,3.009736450672609,23.9915731557296
0.001859930506329114,3.009736450672609,23.99526240008613
0.001859940506329114,3.007431210026773,23.98788391137308
