TP2/Mediciones/Vgs y Vo para 08.csv

#Digilent WaveForms Oscilloscope Acquisition
#Device Name: Discovery2
#Serial Number: SN:210321B0E036
#Date Time: 2021-06-24 22:01:03.585
#Sample rate: 1e+08Hz
#Samples: 8192
#Trigger: Source: Channel 2 Type: Edge Condition: Rising Level: 2.2 V Hyst.: Auto HoldOff: 0 s
#Channel 1: Range: 50 mV/div Offset: -855 mV Attenuation: 1 X
#Channel 2: Range: 1 V/div Offset: -3 V Attenuation: 1 X
#Power Supplies: ON
#Positive Supply: ON
#Voltage: 800 mV
#Negative Supply: OFF
#Voltage: -1 V

Time (s),Channel 1 (V),Channel 2 (V)
0.001854332843137255,0.7826969511387294,-0.02350037947966611
0.001854342843137255,0.7813796707696788,-0.01981113512313875
0.001854352843137255,0.7813796707696692,-0.03825735690579949
0.001854362843137255,0.7820383109541942,-0.03087886819274812
0.001854372843137255,0.7820383109541945,-0.05301433433188925
0.001854382843137255,0.7810503506774076,-0.04563584561879427
0.001854392843137255,0.7817089908619337,-0.03087886819273135
0.001854402843137255,0.7826969511387212,-0.02718962383620522
0.001854412843137255,0.7820383109542,-0.0456358456187842
0.001854422843137255,0.7817089908619254,-0.03825735690597397
0.001854432843137255,0.7810503506774039,-0.05670357868857308
0.001854442843137255,0.7830262712309789,-0.05301433433204696
0.001854452843137255,0.7810503506774219,-0.04563584561901236
0.001854462843137255,0.7823676310464518,-0.04563584561893519
0.001854472843137255,0.7810503506774018,-0.04563584561893519
0.001854482843137255,0.782696951138713,-0.0530143343319832
0.001854492843137255,0.7826969511387114,-0.05301433433206373
0.001854502843137255,0.7813796707696635,-0.05670357868854289
0.001854512843137255,0.7807210305851386,-0.04563584561896539
0.001854522843137255,0.7817089908619216,-0.04194660126241957
0.001854532843137255,0.7817089908619206,-0.049325089975429
0.001854542843137255,0.7803917104928741,-0.04194660126239273
0.001854552843137255,0.7817089908619241,-0.04563584561891841
0.001854562843137255,0.7823676310464482,-0.04932508997540216
0.001854572843137255,0.7813796707696606,-0.04194660126251688
0.001854582843137255,0.7803917104928733,-0.06777131175819712
0.001854592843137255,0.7800623904006102,-0.06039282304517594
0.001854602843137255,0.7813796707696656,-0.04563584561890163
0.001854612843137255,0.7813796707696646,-0.04194660126238769
0.001854622843137255,0.7810503506774021,-0.04194660126238769
0.001854632843137255,0.7826969511387092,-0.02718962383632433
0.001854642843137255,0.7813796707696701,-0.04194660126233737
0.001854652843137255,0.7820383109541933,-0.03456811254930233
0.001854662843137255,0.7807210305851434,-0.04563584561887982
0.001854672843137255,0.7807210305851369,-0.05301433433194965
0.001854682843137255,0.7817089908619236,-0.04932508997539041
0.001854692843137255,0.7803917104928736,-0.03087886819276155
0.001854702843137255,0.7820383109541833,-0.02350037947969967
0.001854712843137255,0.7823676310464448,-0.01612189076684123
0.001854722843137255,0.7807210305851386,-0.04932508997545249
0.001854732843137255,0.7813796707696635,-0.03825735690587499
0.001854742843137255,0.7817089908619271,-0.02718962383629749
0.001854752843137255,0.7817089908619346,-0.0419466012623122
0.001854762843137255,0.7823676310464587,-0.03087886819275483
0.001854772843137255,0.7820383109541963,-0.0419466012623273
0.001854782843137255,0.7817089908619164,-0.03825735690576258
0.001854792843137255,0.7803917104928828,-0.03087886819276155
0.001854802843137255,0.7826969511387203,-0.03456811254928723
0.001854812843137255,0.7823676310464615,-0.03456811254929226
0.001854822843137255,0.780721030585154,-0.02718962383632433
0.001854832843137255,0.7826969511387174,-0.04194660126234576
0.001854842843137255,0.7800623904006175,-0.02350037947971644
0.001854852843137255,0.7797330703083466,-0.0271896238361616
0.001854862843137255,0.7823676310464444,-0.0456358456189117
0.001854872843137255,0.7800623904006079,-0.04194660126239105
0.001854882843137255,0.7797330703083453,-0.04932508997544242
0.001854892843137255,0.7813796707696656,-0.01981113512313875
0.001854902843137255,0.7813796707696643,-0.02350037947960404
0.001854912843137255,0.7810503506774018,-0.01243264641002654
0.001854922843137255,0.781708990861925,-0.02350037947956377
0.001854932843137255,0.7810503506773931,0.002324331016123615
0.001854942843137255,0.7800623904006088,-0.005054157696919809
0.001854952843137255,0.7803917104928711,-0.008743402053445494
0.001854962843137255,0.7800623904006111,-0.005054157696946652
0.001854972843137255,0.7810503506773935,-0.01981113512292736
0.001854982843137255,0.7797330703083435,0.009702819729279
0.001854992843137255,0.7817089908619185,0.01339206408580513
0.001855002843137255,0.7817089908619236,-0.001364913340400392
0.001855012843137255,0.7810503506773958,-0.005054157696835926
0.001855022843137255,0.7797330703083459,0.01339206408579338
0.001855032843137255,0.7797330703083435,-0.0013649133402494
0.001855042843137255,0.7810503506773961,0.01339206408568434
0.001855052843137255,0.7803917104928724,-0.005054157696911421
0.001855062843137255,0.7803917104928724,-0.005054157696911421
0.001855072843137255,0.7813796707696558,-0.005054157696911421
0.001855082843137255,0.7790744301238322,0.002324331016096772
0.001855092843137255,0.7820383109541945,-0.01243264641000641
0.001855102843137255,0.783026271230982,0.006013575372622457
0.001855112843137255,0.7797330703083529,0.00232433101614878
0.001855122843137255,0.7807210305851369,-0.00136491334033664
0.001855132843137255,0.7807210305851369,0.006013575372714729
0.001855142843137255,0.781708990861922,0.002324331016214209
0.001855152843137255,0.7800623904006105,0.006013575372731506
0.001855162843137255,0.7803917104928718,0.006013575372704662
0.001855172843137255,0.7800623904006093,-0.008743402053398519
0.001855182843137255,0.7807210305851303,-0.0124326464099695
0.001855192843137255,0.778745110031561,-0.01243264640996614
0.001855202843137255,0.780721030585136,-0.005054157696914776
0.001855212843137255,0.7807210305851369,0.009702819729185051
0.001855222843137255,0.7813796707696593,-0.001364913340398714
0.001855232843137255,0.7807210305851356,-0.005054157696951685
0.001855242843137255,0.7803917104928731,-0.01612189076652918
0.001855252843137255,0.780721030585134,-0.008743402053522666
0.001855262843137255,0.7803917104928724,0.00601357537267782
0.001855272843137255,0.7803917104928741,-0.001364913340368516
0.001855282843137255,0.7817089908619241,-0.005054157696894645
0.001855292843137255,0.7817089908619301,0.009702819729124654
0.001855302843137255,0.7803917104928706,-0.01981113512296092
0.001855312843137255,0.7800623904006083,0.006013575372708017
0.001855322843137255,0.7803917104928701,-0.001364913340313152
0.001855332843137255,0.7803917104928784,-0.005054157696944975
0.001855342843137255,0.7810503506774013,-0.008743402053447171
0.001855352843137255,0.7810503506774013,-0.005054157696921488
0.001855362843137255,0.7807210305851398,-0.00874340205342704
0.001855372843137255,0.7803917104928724,-0.008743402053432072
0.001855382843137255,0.780391710492872,-0.00505415769690471
0.001855392843137255,0.7800623904006097,0.002324331016147103
0.001855402843137255,0.7817089908619121,-0.005054157696830893
0.001855412843137255,0.7800623904006063,-0.005054157696892967
0.001855422843137255,0.7797330703083438,-0.001364913340366838
0.001855432843137255,0.7807210305851301,0.01708130844224861
0.001855442843137255,0.7810503506773984,-0.00874340205342704
0.001855452843137255,0.7807210305851386,-0.005054157696921487
0.001855462843137255,0.7813796707696635,-0.008743402053447171
0.001855472843137255,0.7820383109541885,0.006013575372597292
0.001855482843137255,0.7803917104928791,-0.01243264640995608
0.001855492843137255,0.7813796707696656,-0.00505415769690471
0.001855502843137255,0.7813796707696656,0.002324331016147103
0.001855512843137255,0.7787451100315743,-0.008743402053381743
0.001855522843137255,0.7810503506773953,-0.001364913340346706
0.001855532843137255,0.7797330703083453,0.002324331016178979
0.001855542843137255,0.7813796707696536,-0.01243264640989904
0.001855552843137255,0.78137967076966,-0.02350037947948996
0.001855562843137255,0.780721030585136,-0.005054157696921487
0.001855572843137255,0.7803917104928734,-0.008743402053447171
0.001855582843137255,0.7797330703083495,-0.005054157696944974
0.001855592843137255,0.7803917104928724,-0.008743402053458915
0.001855602843137255,0.7803917104928728,-0.008743402053457238
0.001855612843137255,0.7813796707696602,-0.005054157696931552
0.001855622843137255,0.7797330703083538,-0.005054157696911421
0.001855632843137255,0.7807210305851369,-0.005054157697012082
0.001855642843137255,0.7807210305851369,-0.02718962383616663
0.001855652843137255,0.7780864698470406,0.00232433101596927
0.001855662843137255,0.7803917104928697,-0.01981113512307164
0.001855672843137255,0.7800623904006088,-0.01612189076655435
0.001855682843137255,0.7803917104928711,-0.01612189076655435
0.001855692843137255,0.7797330703083498,-0.01981113512306661
0.001855702843137255,0.7800623904006101,-0.01243264641005338
0.001855712843137255,0.7803917104928724,-0.01981113512310352
0.001855722843137255,0.7803917104928724,-0.0235003794796292
0.001855732843137255,0.7787451100315634,-0.01981113512310184
0.001855742843137255,0.7800623904006067,-0.01981113512308674
0.001855752843137255,0.779733070308344,-0.01612189076656106
0.001855762843137255,0.7803917104928673,-0.01612189076655435
0.001855772843137255,0.779733070308338,-0.03087886819274477
0.001855782843137255,0.7790744301238116,-0.03087886819275316
0.001855792843137255,0.7777571497547617,-0.03456811254927884
0.001855802843137255,0.7797330703083237,-0.06039282304486725
0.001855812843137255,0.7794037502160928,-0.01612189076664159
0.001855822843137255,0.7817089908619301,-0.03087886819274477
0.001855832843137255,0.7803917104928801,-0.03825735690579614
0.001855842843137255,0.7794037502160857,-0.03456811254936608
0.001855852843137255,0.7800623904006093,-0.0419466012623273
0.001855862843137255,0.7803917104928716,-0.02718962383623038
0.001855872843137255,0.7807210305851342,-0.03825735690574916
0.001855882843137255,0.7800623904006029,-0.02350037947970638
0.001855892843137255,0.7794037502160797,-0.03087886819277161
0.001855902843137255,0.7797330703083422,-0.04563584561887479
0.001855912843137255,0.7797330703083435,-0.02350037947987079
0.001855922843137255,0.7787451100315592,-0.02718962383621696
0.001855932843137255,0.7803917104928716,-0.03087886819274309
0.001855942843137255,0.7803917104928724,-0.01981113512317231
0.001855952843137255,0.7803917104928535,-0.04194660126235247
0.001855962843137255,0.7784157899392931,-0.03825735690581292
0.001855972843137255,0.7803917104928679,-0.03087886819276155
0.001855982843137255,0.7803917104928724,-0.01981113512319244
0.001855992843137255,0.7810503506773965,-0.03456811254929226
0.001856002843137255,0.7803917104928715,-0.03456811254930233
0.001856012843137255,0.7797330703083465,-0.04194660126235414
0.001856022843137255,0.7800623904006045,-0.0456358456188966
0.001856032843137255,0.778745110031561,-0.03825735690581963
0.001856042843137255,0.780721030585136,-0.03456811254929394
0.001856052843137255,0.7797330703083498,-0.03087886819276826
0.001856062843137255,0.7794037502160851,-0.0382573569058062
0.001856072843137255,0.7800623904006132,-0.03456811254912785
0.001856082843137255,0.7817089908619257,0.01708130844223351
0.001856092843137255,0.7770985095702679,0.04290601893798465
0.001856102843137255,0.7810503506774013,0.2015435262709096
0.001856112843137255,0.7810503506773986,0.3601810336016452
0.001856122843137255,0.7790744301238236,0.6110496498454001
0.001856132843137255,0.7856608319690345,0.8545397773761368
0.001856142843137255,0.7721587081863325,1.190261013826141
0.001856152843137255,0.7863194721536193,1.514914517200412
0.001856162843137255,0.7767691894780288,1.887528197209475
0.001856172843137255,0.780062390400617,2.263831121583363
0.001856182843137255,0.7810503506773908,2.647512534662094
0.001856192843137255,0.777757149754766,3.045950925166881
0.001856202843137255,0.7843435515999886,3.418564605176058
0.001856212843137255,0.7784157899392814,3.791178285192047
0.001856222843137255,0.7777571497547587,4.005154457870362
0.001856232843137255,0.7797330703083336,4.019911435296465
0.001856242843137255,0.7807210305850938,4.005154457870067
0.001856252843137255,0.7767691894780048,3.979329747374479
0.001856262843137255,0.785002191784567,3.971951258661427
0.001856272843137255,0.7751225890167088,3.97195125866142
0.001856282843137255,0.780391710492898,3.960883525591809
0.001856292843137255,0.7833555913232271,3.964572769948275
0.001856302843137255,0.7741346287398775,3.946126548165645
0.001856312843137255,0.7853315118767371,3.986708236087241
0.001856322843137255,0.7803917104928656,3.971951258661546
0.001856332843137255,0.7794037502160815,3.990397480444154
0.001856342843137255,0.7820383109541813,3.986708236087629
0.001856352843137255,0.7757812292012415,4.023600679652668
0.001856362843137255,0.7807210305851369,4.034668412723451
0.001856372843137255,0.7807210305851369,4.19330592005406
0.001856382843137255,0.7790744301238266,4.403592848375961
0.001856392843137255,0.7800623904006023,4.599122799276141
0.001856402843137255,0.77940375021608,4.787274261458987
0.001856412843137255,0.7797330703083423,4.98649345671129
0.001856422843137255,0.780391710492866,5.163577185824609
0.001856432843137255,0.778086469847036,5.348039403654879
0.001856442843137255,0.7803917104928725,5.536190865837669
0.001856452843137255,0.7807210305851351,5.665314418316073
0.001856462843137255,0.7780864698470351,5.764924015944334
0.001856472843137255,0.7794037502160818,5.838708903074455
0.001856482843137255,0.7800623904006068,5.82395192564835
0.001856492843137255,0.7794037502160842,5.823951925648323
0.001856502843137255,0.7794037502160818,5.735410061090578
0.001856512843137255,0.7797330703083413,5.661625173960002
0.001856522843137255,0.7787451100315538,5.562015576333806
0.001856532843137255,0.7803917104928566,5.462405978707609
0.001856542843137255,0.7784157899392995,5.340660914939823
0.001856552843137255,0.7807210305851369,5.211537362461419
0.001856562843137255,0.7790744301238244,5.104549276122171
0.001856572843137255,0.7790744301238047,4.993871945423708
0.001856582843137255,0.7780864698470173,4.853680659875788
0.001856592843137255,0.7770985095702299,4.72824635175391
0.001856602843137255,0.7797330703083232,4.628636754127666
0.001856612843137255,0.7803917104928673,4.514270179073036
0.001856622843137255,0.7797330703083465,4.399903604020755
0.001856632843137255,0.7813796707696589,4.296604762038033
0.001856642843137255,0.7794037502160989,4.185927431342289
0.001856652843137255,0.7803917104928665,4.07893934500069
0.001856662843137255,0.7794037502160791,3.975640503017968
0.001856672843137255,0.7807210305851291,3.883409394104823
0.001856682843137255,0.7800623904006143,3.805935262616496
0.001856692843137255,0.7807210305851309,3.776421307764302
0.001856702843137255,0.7790744301238184,3.750596597268622
0.001856712843137255,0.781050350677385,3.732150375485976
0.001856722843137255,0.7774278296625153,3.750596597268563
0.001856732843137255,0.7803917104928718,3.750596597268557
0.001856742843137255,0.7800623904006093,3.74690735291203
0.001856752843137255,0.7790744301238245,3.750596597268526
0.001856762843137255,0.7803917104928688,3.757975085981638
0.001856772843137255,0.7797330703083438,3.754285841625113
0.001856782843137255,0.7794037502160812,3.761664330338159
0.001856792843137255,0.7784157899392984,3.757975085981835
0.001856802843137255,0.7797330703083435,3.77642130776437
0.001856812843137255,0.7797330703083435,3.769042819051318
0.001856822843137255,0.7807210305851288,3.776421307764336
0.001856832843137255,0.7784157899393002,3.78748904083412
0.001856842843137255,0.7803917104928701,3.798556773903662
0.001856852843137255,0.7787451100315577,3.783799796477559
0.001856862843137255,0.7790744301238112,3.772732063407965
0.001856872843137255,0.7800623904006008,3.780110552120864
0.001856882843137255,0.7787451100315508,3.76535357469476
0.001856892843137255,0.7794037502160747,3.743218108555619
0.001856902843137255,0.777757149754763,3.728461131129076
0.001856912843137255,0.7784157899392889,3.706325664989909
0.001856922843137255,0.7794037502160764,3.680500954494229
0.001856932843137255,0.7787451100315559,3.647297755285517
0.001856942843137255,0.780391710492858,3.632540777858798
0.001856952843137255,0.7784157899392858,3.599337578650044
0.001856962843137255,0.7784157899392858,3.525552691519528
0.001856972843137255,0.7780864698470357,3.470214026170058
0.001856982843137255,0.7794037502160873,3.389050650326491
0.001856992843137255,0.7810503506773998,3.307887274482923
0.001857002843137255,0.7836849114154987,3.178763722004563
0.001857012843137255,0.8041027571360883,3.086532613088717
0.001857022843137255,0.8235326425795795,2.946341327540861
0.001857032843137255,0.8479023294070034,2.828285508132034
0.001857042843137255,0.8735892966034731,2.688094222584124
0.001857052843137255,0.8917019016783582,2.581106136242138
0.001857062843137255,0.9075092661069527,2.459361072476759
0.001857072843137255,0.9180475090593522,2.308102053859201
0.001857082843137255,0.9243045908123609,2.193735478806717
0.001857092843137255,0.9213407099819924,2.064611926325295
0.001857102843137255,0.9088265464760179,1.843257264933747
0.001857112843137255,0.8890673409402787,1.846946509289966
0.001857122843137255,0.8620630933742722,1.65510580274907
0.001857132843137255,0.8413159275617464,1.603456381757628
0.001857142843137255,0.8245206028563598,1.522293005914061
0.001857152843137255,0.8261672033176134,1.41161567521838
0.001857162843137255,0.8195808014724153,1.315695321947065
0.001857172843137255,0.8314363247938628,1.304627588877457
0.001857182843137255,0.8390106869159,1.227153457390416
0.001857192843137255,0.8419745677463728,1.227153457389183
0.001857202843137255,0.8469143691303056,1.149679325902426
0.001857212843137255,0.8508662102374553,1.134922348476323
0.001857222843137255,0.8535007709755571,1.042691239563283
0.001857232843137255,0.8630510536512178,0.9947310629272814
0.001857242843137255,0.8597578527286073,0.968906352431584
0.001857252843137255,0.8627217335589696,0.9357031532228519
0.001857262843137255,0.8650269742048095,0.8582290217359709
0.001857272843137255,0.8581112522672658,0.795511867673804
0.001857282843137255,0.8561353317136882,0.7770656458911701
0.001857292843137255,0.8482316494993885,0.7475516910389638
0.001857302843137255,0.8455970887612365,0.6885237813337084
0.001857312843137255,0.8462557289457385,0.655320582125082
0.001857322843137255,0.8413159275618013,0.6479420934120302
0.001857332843137255,0.8446091284844112,0.5962926724207493
0.001857342843137255,0.8462557289457749,0.563089473211301
0.001857352843137255,0.8482316494993491,0.5483324957852566
0.001857362843137255,0.8498782499606615,0.559400228854834
0.001857372843137255,0.8469143691303159,0.4893045860811386
0.001857382843137255,0.8508662102374569,0.4745476086541262
0.001857392843137255,0.850207570052932,0.4487228981584455
0.001857402843137255,0.846255728945782,0.4302766763758166
0.001857412843137255,0.850207570052899,0.4044519658796897
0.001857422843137255,0.8469143691302782,0.3860057440970004
0.001857432843137255,0.8446091284844408,0.3528025448882679
0.001857442843137255,0.846585049038007,0.3417348118186552
0.001857452843137255,0.8446091284844494,0.3159101013228168
0.001857462843137255,0.8462557289457552,0.3269778343923473
0.001857472843137255,0.8442798083921803,0.3122208569662441
0.001857482843137255,0.8442798083921722,0.2863961464706087
0.001857492843137255,0.8465850490380135,0.2753284134006202
0.001857502843137255,0.8449384485767019,0.2605714359745238
0.001857512843137255,0.8446091284844387,0.2495037029049446
0.001857522843137255,0.8449384485766822,0.2531929472609993
0.001857532843137255,0.8429625280231192,0.2089220149828638
0.001857542843137255,0.8442798083921692,0.2126112593393899
0.001857552843137255,0.8423038878386018,0.2052327706263632
0.001857562843137255,0.8429625280231072,0.1941650375566331
0.001857572843137255,0.841974567746319,0.1904757932001074
0.001857582843137255,0.8403279672850065,0.1867865488435817
