TP2/Mediciones/Vgs y Vo para 3.csv

#Digilent WaveForms Oscilloscope Acquisition
#Device Name: Discovery2
#Serial Number: SN:210321B0E036
#Date Time: 2021-06-24 22:06:35.981
#Sample rate: 1e+08Hz
#Samples: 8192
#Trigger: Source: Channel 2 Type: Edge Condition: Rising Level: 6.5 V Hyst.: Auto HoldOff: 0 s
#Channel 1: Range: 200 mV/div Offset: -2.75 V Attenuation: 1 X
#Channel 2: Range: 2 V/div Offset: -4.2 V Attenuation: 1 X
#Power Supplies: ON
#Positive Supply: ON
#Voltage: 3 V
#Negative Supply: OFF
#Voltage: -1 V

Time (s),Channel 1 (V),Channel 2 (V)
0.001856653902439025,2.966924838678228,-0.06380325421514026
0.001856663902439024,2.967912798955016,-0.05273552114555772
0.001856673902439025,2.966924838678231,-0.04535703243237125
0.001856683902439025,2.966595518585968,-0.04904627678889738
0.001856693902439025,2.968571439139542,-0.01584307758018166
0.001856703902439025,2.967912798955023,-0.03797854371907997
0.001856713902439025,2.967583478862759,-0.01953232193642427
0.001856723902439025,2.966924838678234,0.006292388559255971
0.001856733902439025,2.967254158770494,-0.01215383322327224
0.001856743902439025,2.966595518585978,0.006292388559368373
0.001856753902439025,2.967912798955023,0.01367087727241056
0.001856763902439025,2.965607558309185,0.01367087727241056
0.001856773902439024,2.967254158770479,0.03211709905495555
0.001856783902439025,2.966924838678234,0.03211709905510821
0.001856793902439025,2.967254158770497,0.02473861034205685
0.001856803902439025,2.96626619849371,0.04318483212467397
0.001856813902439025,2.967583478862749,0.05056332083798706
0.001856823902439025,2.966266198493703,0.06163105390754106
0.001856833902439025,2.96593687840144,0.0653202982640672
0.001856843902439024,2.965607558309177,0.0616310539075612
0.001856853902439025,2.966266198493704,0.06532029826402358
0.001856863902439025,2.966266198493704,0.05794180955098138
0.001856873902439025,2.966266198493704,0.05794180955098138
0.001856883902439025,2.966924838678222,0.05425256519439407
0.001856893902439025,2.965936878401434,0.05056332083788639
0.001856903902439025,2.964948918124647,0.05056332083788639
0.001856913902439025,2.967583478862744,0.06163105390745383
0.001856923902439025,2.966266198493689,0.06900954262042298
0.001856933902439025,2.964619598032387,0.04687407648137368
0.001856943902439025,2.966266198493699,0.05794180955095118
0.001856953902439024,2.965278238216919,0.05056332083795015
0.001856963902439025,2.965278238216912,0.0542525651944595
0.001856973902439025,2.965607558309173,0.05794180955098474
0.001856983902439025,2.963631637755598,0.06163105390751086
0.001856993902439024,2.966595518585936,0.06163105390752932
0.001857003902439025,2.966924838678221,0.05794180955094447
0.001857013902439025,2.964619598032384,0.0505633208378931
0.001857023902439025,2.965607558309168,0.05425256519440916
0.001857033902439025,2.963631637755608,0.05425256519446621
0.001857043902439025,2.965936878401438,0.05794180955098138
0.001857053902439025,2.965607558309176,0.05794180955098138
0.001857063902439024,2.964948918124652,0.0505633208379535
0.001857073902439025,2.96626619849369,0.04687407648128813
0.001857083902439025,2.964290277940118,0.03949558776824347
0.001857093902439025,2.964948918124642,0.03949558776824347
0.001857103902439025,2.963960957847853,0.03949558776820488
0.001857113902439025,2.963960957847859,0.03580634341167964
0.001857123902439025,2.965278238216909,0.03211709905515351
0.001857133902439025,2.9636316377556,0.04318483212471088
0.001857143902439025,2.964290277940109,0.01736012162898949
0.001857153902439025,2.963302317663327,0.02104936598550555
0.001857163902439025,2.964619598032377,0.02104936598550555
0.001857173902439024,2.96429027794012,0.01736012162899285
0.001857183902439025,2.964948918124642,0.006292388559361662
0.001857193902439025,2.964290277940117,0.01367087727240553
0.001857203902439025,2.963960957847855,0.002603144202828034
0.001857213902439025,2.963960957847859,-0.0121538332233125
0.001857223902439025,2.964619598032378,-0.001086100153765202
0.001857233902439025,2.96363163775559,0.002603144202760927
0.001857243902439025,2.964290277940112,-0.01953232193634709
0.001857253902439025,2.963631637755607,-0.01584307758003067
0.001857263902439025,2.965936878401438,-0.0232215662931081
0.001857273902439025,2.965278238216912,-0.04166778807573696
0.001857283902439024,2.963302317663342,-0.04166778807580407
0.001857293902439025,2.96330231766332,-0.03797854371938699
0.001857303902439025,2.962643677478795,-0.06011400985854198
0.001857313902439025,2.96330231766332,-0.06380325421506811
0.001857323902439025,2.96396095784785,-0.06749249857163697
0.001857333902439025,2.963631637755588,-0.06749249857165207
0.001857343902439025,2.963631637755588,-0.07118174292817819
0.001857353902439025,2.962643677478802,-0.08593872035426081
0.001857363902439025,2.96396095784785,-0.07487098728484692
0.001857373902439025,2.963631637755588,-0.08962796471091611
0.001857383902439025,2.963302317663325,-0.08593872035438999
0.001857393902439024,2.963631637755585,-0.09331720906739695
0.001857403902439025,2.961655717202015,-0.0933172090675362
0.001857413902439025,2.963960957847853,-0.1043849421371137
0.001857423902439025,2.961655717202015,-0.1228311639197426
0.001857433902439025,2.963631637755579,-0.100695697780002
0.001857443902439025,2.962643677478805,-0.04166778807542827
0.001857453902439025,2.965607558309168,0.06163105390729445
0.001857463902439025,2.96099707701751,0.1907546063856387
0.001857473902439025,2.964948918124656,0.4047307790681691
0.001857483902439025,2.966266198493695,0.6260854404598519
0.001857493902439025,2.961326397109758,0.9212249889819164
0.001857503902439024,2.964290277940087,1.231121514930024
0.001857513902439025,2.964948918124628,1.566842751381071
0.001857523902439025,2.961655717202003,1.954213408816281
0.001857533902439025,2.966924838678199,2.348962554964539
0.001857543902439025,2.959679796648447,2.747400945477753
0.001857553902439025,2.962972997571065,3.1200146254869
0.001857563902439025,2.964619598032378,3.503696038565584
0.001857573902439024,2.957374556002627,3.846795763722421
0.001857583902439025,2.967912798954988,3.916891406499924
0.001857593902439025,2.962643677478795,3.935337628282467
0.001857603902439025,2.962972997571058,3.891066696004157
0.001857613902439024,2.967254158770452,3.872620474221411
0.001857623902439025,2.955727955541295,3.879998962934253
0.001857633902439025,2.965607558309166,3.868931229864681
0.001857643902439025,2.960997077017504,3.854174252438581
0.001857653902439025,2.95935047655618,3.868931229864637
0.001857663902439025,2.962643677478777,3.865241985508146
0.001857673902439025,2.957045235910315,3.872620474221198
0.001857683902439024,2.961655717201962,3.872620474221218
0.001857693902439025,2.962643677478764,3.894755940360638
0.001857703902439025,2.958362516279361,3.913202162143246
0.001857713902439025,2.96231435738651,3.916891406499771
0.001857723902439024,2.959679796648444,4.071839669473098
0.001857733902439025,2.960009116740677,4.241544909877124
0.001857743902439025,2.959350476556151,4.470278059981724
0.001857753902439025,2.960338436832937,4.665808010877622
0.001857763902439025,2.961326397109729,4.84658098435151
0.001857773902439025,2.96033843683294,5.045800179603864
0.001857783902439025,2.95902115646389,5.230262397430154
0.001857793902439024,2.961985037294239,5.407346126543417
0.001857803902439025,2.960009116740693,5.588119100017043
0.001857813902439025,2.961985037294264,5.761513584773756
0.001857823902439025,2.959021156463901,5.934908069530469
0.001857833902439025,2.96231435738653,6.086167088151757
0.001857843902439025,2.962314357386523,6.274318550334271
0.001857853902439025,2.96066775692521,6.396063614099622
0.001857863902439025,2.959679796648422,6.562079610143224
0.001857873902439025,2.959021156463906,6.717027873120706
0.001857883902439025,2.961326397109737,6.864597647381678
0.001857893902439025,2.961326397109737,6.990031955503555
0.001857903902439024,2.960009116740692,7.137601729764517
0.001857913902439025,2.961326397109737,7.266725282245755
0.001857923902439025,2.961326397109737,7.381091857298066
0.001857933902439025,2.960667756925212,7.521283142846047
0.001857943902439025,2.960009116740707,7.631960473544629
0.001857953902439025,2.962643677478789,7.764773270379491
0.001857963902439025,2.961326397109739,7.882829089788317
0.001857973902439025,2.960667756925213,7.98243868741454
0.001857983902439025,2.959679796648421,8.08942677375599
0.001857993902439025,2.960338436832947,8.192725615738713
0.001858003902439025,2.961655717201997,8.296024457721435
0.001858013902439024,2.960338436832956,8.406701788417182
0.001858023902439025,2.959350476556161,8.524757607828231
0.001858033902439025,2.960997077017472,8.59854249495876
0.001858043902439025,2.960338436832947,8.694462848228431
0.001858053902439025,2.960009116740683,8.794072445856441
0.001858063902439025,2.960338436832944,8.864168088630507
0.001858073902439025,2.960338436832944,8.952709953187126
0.001858083902439025,2.960009116740682,9.044941062100266
0.001858093902439025,2.960338436832946,9.126104437945598
0.001858103902439025,2.960667756925205,9.196200080719629
0.001858113902439025,2.959350476556156,9.284741945276251
0.001858123902439024,2.959350476556151,9.340080610624232
0.001858133902439025,2.95935047655616,9.439690208251921
0.001858143902439025,2.960997077017473,9.498718117956335
0.001858153902439025,2.959679796648423,9.561435272017272
0.001858163902439025,2.959679796648435,9.620463181723146
0.001858173902439025,2.961655717201992,9.69424806885363
0.001858183902439025,2.959350476556156,9.760654467271065
0.001858193902439025,2.959679796648413,9.804925399549425
0.001858203902439025,2.958691836371635,9.867642553611411
0.001858213902439025,2.960338436832939,9.908224241533233
0.001858223902439025,2.957703876094839,9.970941395594174
0.001858233902439024,2.959021156463873,10.01521232787256
0.001858243902439025,2.959021156463895,10.07424023757806
0.001858253902439025,2.960667756925207,10.12957890292595
0.001858263902439025,2.959021156463897,10.17384983520427
0.001858273902439025,2.958691836371628,10.22918850055329
0.001858283902439025,2.959350476556152,10.284527165901
0.001858293902439025,2.959679796648414,10.29190565461406
0.001858303902439025,2.95869183637163,10.3620012973879
0.001858313902439025,2.959021156463888,10.40627222966729
0.001858323902439025,2.95935047655615,10.43947542887604
0.001858333902439025,2.959021156463888,10.48743560551088
0.001858343902439024,2.959350476556147,10.52432804907619
0.001858353902439025,2.958362516279357,10.57597747006834
0.001858363902439025,2.958362516279357,10.59442369185097
0.001858373902439025,2.958033196187095,10.62024840234665
0.001858383902439025,2.959350476556151,10.66820857898233
0.001858393902439025,2.959350476556148,10.71247951126063
0.001858403902439025,2.95836251627936,10.75306119918242
0.001858413902439024,2.959350476556142,10.77888590967813
0.001858423902439025,2.958033196187098,10.79364288710487
0.001858433902439025,2.958691836371621,10.83791381938314
0.001858443902439025,2.958033196187096,10.85267079680924
0.001858453902439024,2.957374556002571,10.87849550730487
0.001858463902439025,2.958362516279359,10.92645568394035
0.001858473902439025,2.958691836371621,10.94490190572298
0.001858483902439025,2.958691836371622,10.96703737186214
0.001858493902439025,2.957374556002558,10.98179434928878
0.001858503902439025,2.956715915818041,11.01499754849748
0.001858513902439025,2.958691836371616,11.03713301463663
0.001858523902439024,2.956386595725791,11.05926848077578
0.001858533902439025,2.959021156463873,11.07771470255879
0.001858543902439025,2.957045235910301,11.08878243562837
0.001858553902439025,2.959021156463876,11.107228657411
0.001858563902439025,2.958362516279343,11.13305336790713
0.001858573902439025,2.957045235910303,11.15149958968981
0.001858583902439025,2.957703876094828,11.18101354454202
0.001858593902439025,2.958691836371615,11.18839203325509
0.001858603902439025,2.957703876094822,11.1883920332554
0.001858613902439025,2.957045235910299,11.21790598810757
0.001858623902439025,2.956715915818036,11.23266296553367
0.001858633902439024,2.958033196187081,11.2547984316728
0.001858643902439025,2.957045235910289,11.24373069860361
0.001858653902439025,2.955398635448978,11.28062314216884
0.001858663902439025,2.956057275633503,11.29169087523842
0.001858673902439024,2.957045235910289,11.29906936395149
0.001858683902439025,2.956715915818041,11.33596180751708
0.001858693902439025,2.958033196187091,11.34334029623013
0.001858703902439025,2.956386595725783,11.33227256316058
0.001858713902439025,2.95737455600255,11.33965105187379
0.001858723902439025,2.955727955541244,11.36178651801289
0.001858733902439025,2.956715915818032,11.36547576236941
0.001858743902439024,2.957374556002558,11.38392198415199
0.001858753902439025,2.95605727563351,11.40236820593481
0.001858763902439025,2.956715915818036,11.38761122850872
0.001858773902439025,2.957703876094823,11.3986789615783
0.001858783902439025,2.956715915818021,11.40974669464835
0.001858793902439025,2.955398635448984,11.4429498938569
0.001858803902439025,2.957045235910297,11.43557140514385
0.001858813902439025,2.955398635448991,11.43557140514383
0.001858823902439025,2.958033196187071,11.4466391382136
0.001858833902439025,2.955398635448979,11.46139611563964
0.001858843902439025,2.95572795554124,11.45032838257007
0.001858853902439024,2.955727955541242,11.46877460435259
0.001858863902439025,2.955398635448986,11.4650853599963
0.001858873902439025,2.956715915818035,11.4798423374224
0.001858883902439025,2.95605727563351,11.48353158177893
0.001858893902439025,2.956386595725768,11.48722082613546
0.001858903902439025,2.956057275633506,11.48353158177894
0.001858913902439025,2.956057275633506,11.47984233742241
0.001858923902439025,2.955398635448983,11.47615309306589
0.001858933902439025,2.955727955541237,11.51304553663111
0.001858943902439025,2.955069315356716,11.483531581779
0.001858953902439025,2.956715915818029,11.51304553663121
0.001858963902439024,2.955727955541251,11.49828855920529
0.001858973902439025,2.955069315356711,11.51304553663127
0.001858983902439025,2.954739995264449,11.50197780356169
0.001858993902439025,2.955727955541236,11.50935629227474
0.001859003902439025,2.957374556002542,11.52042402534446
0.001859013902439025,2.955069315356714,11.524113269701
0.001859023902439025,2.955398635448977,11.53149175841406
0.001859033902439025,2.954410675172192,11.53887024712711
0.001859043902439025,2.954410675172194,11.52411326970095
0.001859053902439025,2.955727955541239,11.52042402534444
0.001859063902439025,2.954410675172189,11.52780251405749
0.001859073902439024,2.954410675172184,11.53518100277054
0.001859083902439025,2.954739995264456,11.53149175841411
0.001859093902439025,2.956057275633506,11.53887024712716
0.001859103902439025,2.953422714895408,11.52780251405759
0.001859113902439025,2.95441067517219,11.53518100277062
0.001859123902439025,2.955069315356711,11.53518100277065
0.001859133902439025,2.954410675172185,11.5425594914837
0.001859143902439025,2.954410675172184,11.54255949148371
0.001859153902439025,2.953752034987667,11.53518100277059
0.001859163902439025,2.955398635448977,11.5314917584141
0.001859173902439025,2.955069315356714,11.55362722455326
0.001859183902439024,2.955069315356713,11.52411326970129
0.001859193902439025,2.954739995264449,11.53518100277068
0.001859203902439025,2.954739995264449,11.54624873584026
0.001859213902439025,2.955069315356711,11.54624873584026
0.001859223902439025,2.954410675172175,11.54993798019661
0.001859233902439025,2.953422714895388,11.52780251405711
0.001859243902439025,2.9524347546186,11.39867896157871
0.001859253902439024,2.95506931535669,11.38761122850881
0.001859263902439025,2.953093394803124,11.2806231421672
0.001859273902439025,2.952764074710862,11.05557923641926
0.001859283902439025,2.952434754618599,10.8748062629495
0.001859293902439025,2.953752034987655,10.69772253383133
0.001859303902439025,2.953752034987634,10.42471845144862
0.001859313902439025,2.949470873788222,10.1922960569875
0.001859323902439025,2.956715915817986,9.941427440743759
0.001859333902439025,2.95506931535668,9.720072779346843
0.001859343902439025,2.951446794341813,9.461825674390175
0.001859353902439025,2.954739995264438,9.21095705814642
0.001859363902439024,2.95506931535671,8.996980885467806
0.001859373902439025,2.955727955541231,8.771936979714793
0.001859383902439025,2.954081355079916,8.52844685218413
0.001859393902439025,2.950129513972767,8.329227656931737
0.001859403902439024,2.955069315356659,8.085737529401253
0.001859413902439025,2.952764074710858,7.901275311570259
0.001859423902439025,2.95177611443407,7.690988383248289
0.001859433902439025,2.953752034987641,7.49176918799588
0.001859443902439025,2.952434754618612,7.277793015313299
0.001859453902439025,2.954081355079913,7.119155507982588
0.001859463902439025,2.951776114434076,6.92362555708672
0.001859473902439024,2.951446794341807,6.735474094903881
0.001859483902439025,2.955398635448946,6.573147343212947
0.001859493902439025,2.950458834065012,6.39606361409971
0.001859503902439025,2.951446794341799,6.226358373699525
0.001859513902439025,2.952764074710862,6.075099355078409
0.001859523902439025,2.952764074710862,5.909083359034848
0.001859533902439025,2.952764074710862,5.765202829130343
0.001859543902439025,2.951776114434076,5.617633054869315
0.001859553902439025,2.951776114434074,5.436860081396471
0.001859563902439025,2.952434754618593,5.322493506344054
0.001859573902439025,2.950458834065018,5.156477510300393
0.001859583902439024,2.953752034987624,5.064246401386979
0.001859593902439025,2.952434754618598,4.931433604549586
0.001859603902439025,2.952434754618598,4.805999296427718
0.001859613902439025,2.953422714895385,4.702700454444996
0.001859623902439025,2.950458834065051,4.547752191468436
0.001859633902439025,2.954410675172175,4.448142593842118
0.001859643902439025,2.952105434526337,4.319019041363714
0.001859653902439025,2.951776114434071,4.230477176807022
0.001859663902439025,2.953752034987639,4.130867579178977
0.001859673902439025,2.951776114434073,4.060771936405088
0.001859683902439025,2.953752034987648,4.034947225909407
0.001859693902439024,2.952105434526349,4.027568737196288
0.001859703902439025,2.951776114434074,4.00543327105702
0.001859713902439025,2.952764074710862,4.020190248483122
0.001859723902439025,2.952434754618599,4.001744026700494
0.001859733902439025,2.952105434526323,4.016501004126538
0.001859743902439025,2.951117474249537,4.012811759770027
0.001859753902439025,2.950458834065012,4.012811759770027
0.001859763902439025,2.950788154157273,4.012811759770027
0.001859773902439025,2.951776114434069,4.00912251541328
0.001859783902439025,2.951776114434069,3.983297804917687
0.001859793902439025,2.951776114434069,4.005433271056842
0.001859803902439024,2.950788154157285,4.001744026700422
0.001859813902439025,2.950458834065019,4.005433271056845
0.001859823902439025,2.951776114434068,3.990676293630748
0.001859833902439025,2.950129513972757,3.994365537987266
0.001859843902439025,2.952434754618588,3.994365537987149
0.001859853902439025,2.951446794341801,3.979608560561099
0.001859863902439025,2.950458834065013,3.979608560561099
0.001859873902439025,2.950788154157273,3.961162338778512
0.001859883902439025,2.951117474249545,3.924269895212885
0.001859893902439025,2.951776114434065,3.92426989521288
0.001859903902439025,2.948812233603702,3.920580650856354
0.001859913902439024,2.950129513972733,3.90951291778681
0.001859923902439025,2.951117474249529,3.887377451647107
0.001859933902439025,2.949141553695954,3.83203878629922
0.001859943902439025,2.95012951397274,3.798835587090477
0.001859953902439025,2.948812233603692,3.713982966887658
0.001859963902439025,2.949141553695989,3.49262830549699
0.001859973902439025,2.960338436832913,3.547966970844877
0.001859983902439024,3.012041691318013,3.522142260349417
0.001859993902439025,3.07790570977201,3.433600395791542
0.001860003902439025,3.1691273753287,3.363504753017481
0.001860013902439025,3.247176237194909,3.241759689252129
0.001860023902439025,3.31699209675596,3.160596313405636
0.001860033902439025,3.37528175308629,2.987201828649033
