TP2/Mediciones/Vsec y Vo para 08.csv

#Digilent WaveForms Oscilloscope Acquisition
#Device Name: Discovery2
#Serial Number: SN:210321B0E036
#Date Time: 2021-06-24 21:57:56.694
#Sample rate: 1e+08Hz
#Samples: 8192
#Trigger: Source: Channel 2 Type: Edge Condition: Rising Level: -2 V Hyst.: Auto HoldOff: 0 s
#Channel 1: Range: 50 mV/div Offset: -855 mV Attenuation: 1 X
#Channel 2: Range: 1 V/div Offset: 1.2 V Attenuation: 1 X
#Power Supplies: ON
#Positive Supply: ON
#Voltage: 800 mV
#Negative Supply: OFF
#Voltage: -1 V

Time (s),Channel 1 (V),Channel 2 (V)
0.001854336290322581,0.7820383109541915,-0.1554444002901992
0.001854346290322581,0.7826969511387168,-0.1406874228640893
0.001854356290322581,0.7833555913232577,-0.1222412010812438
0.001854366290322581,0.7843435516000451,-0.1296196897942954
0.001854376290322581,0.7823676310464716,-0.111173468011678
0.001854386290322581,0.7833555913232397,-0.1111734680114197
0.001854396290322581,0.7820383109541945,-0.09641649058537016
0.001854406290322581,0.7820383109541945,-0.09641649058537016
0.001854416290322581,0.7823676310464563,-0.08534875751581783
0.001854426290322581,0.7833555913232427,-0.08534875751567356
0.001854436290322581,0.782038310954195,-0.07797026880260183
0.001854446290322581,0.7823676310464576,-0.05583480266344705
0.001854456290322581,0.782038310954198,-0.05952404701985552
0.001854466290322581,0.7830262712309861,-0.055834802663286
0.001854476290322581,0.7826969511387235,-0.0447670695937085
0.001854486290322581,0.7826969511387234,-0.0115638703849863
0.001854496290322581,0.7826969511387204,-0.01894235909773591
0.001854506290322581,0.7823676310464611,-0.00418538167158575
0.001854516290322581,0.7830262712309861,0.02532857318062061
0.001854526290322581,0.7817089908619416,0.01795008446766968
0.001854536290322581,0.7820383109541993,0.01795008446784752
0.001854546290322581,0.782696951138723,0.05115328367655462
0.001854556290322581,0.7823676310464605,0.0659102611026578
0.001854566290322581,0.783355591323238,0.05853177238966997
0.001854576290322581,0.7820383109541995,0.06222101674628814
0.001854586290322581,0.783026271230987,0.08435648288544291
0.001854596290322581,0.7830262712309879,0.0880457272419856
0.001854606290322581,0.7817089908619391,0.1064919490248158
0.001854616290322581,0.7826969511387224,0.1138704377378674
0.001854626290322581,0.7823676310464599,0.1212489264509192
0.001854636290322581,0.7830262712309822,0.1138704377379076
0.001854646290322581,0.7826969511387144,0.1249381708076378
0.001854656290322581,0.7813796707696662,0.147073636946759
0.001854666290322581,0.7820383109541912,0.1323166595206559
0.001854676290322581,0.7820383109541945,0.1507628813031189
0.001854686290322581,0.7817089908619268,0.1618306143728708
0.001854696290322581,0.7810503506774018,0.1433843925902417
0.001854706290322581,0.7817089908619257,0.1581413700163147
0.001854716290322581,0.782038310954186,0.1581413700166066
0.001854726290322581,0.7810503506774004,0.1802768361556809
0.001854736290322581,0.7807210305851379,0.1728983474426293
0.001854746290322581,0.7826969511387054,0.1692091030860919
0.001854756290322581,0.7817089908619324,0.1765875917991787
0.001854766290322581,0.7820383109541945,0.1802768361556976
0.001854776290322581,0.7820383109541945,0.1765875917991736
0.001854786290322581,0.7820383109541773,0.1876553248686807
0.001854796290322581,0.7803917104928798,0.1765875917991703
0.001854806290322581,0.7820383109541923,0.180276836155696
0.001854816290322581,0.7820383109541945,0.1950338135817843
0.001854826290322581,0.7810503506774013,0.1802768361557966
0.001854836290322581,0.7810503506774005,0.1913445692253691
0.001854846290322581,0.7807210305851381,0.2024123022949466
0.001854856290322581,0.7813796707696593,0.1950338135819621
0.001854866290322581,0.7823676310464548,0.1839660805122018
0.001854876290322581,0.7817089908619298,0.1765875917991502
0.001854886290322581,0.7810503506774048,0.1692091030860986
0.001854896290322581,0.7810503506774111,0.1655198587295844
0.001854906290322581,0.7820383109541905,0.1728983474425303
0.001854916290322581,0.781050350677403,0.1544521256599014
0.001854926290322581,0.7823676310464488,0.1692091030859442
0.001854936290322581,0.780721030585145,0.1728983474424548
0.001854946290322581,0.7817089908619287,0.1544521256598427
0.001854956290322581,0.7810503506774037,0.1433843925902652
0.001854966290322581,0.7817089908619238,0.1360059038772002
0.001854976290322581,0.782367631046459,0.1581413700164154
0.001854986290322581,0.782367631046459,0.1581413700164154
0.001854996290322581,0.7807210305851466,0.1360059038772606
0.001855006290322581,0.7810503506774145,0.1470736369467355
0.001855016290322581,0.7823676310464509,0.1433843925901646
0.001855026290322581,0.7803917104928759,0.1286274151640614
0.001855036290322581,0.781379670769658,0.1360059038770727
0.001855046290322581,0.7807210305851471,0.1249381708074583
0.001855056290322581,0.782038310954194,0.1212489264509192
0.001855066290322581,0.7817089908619315,0.1101811933813417
0.001855076290322581,0.7817089908619301,0.102802704668275
0.001855086290322581,0.7823676310464492,0.09542421595510597
0.001855096290322581,0.7807210305851369,0.09542421595510597
0.001855106290322581,0.7817089908619242,0.07697799417247689
0.001855116290322581,0.7807210305851432,0.0695995054591317
0.001855126290322581,0.7813796707696669,0.05484252803309562
0.001855136290322581,0.7817089908619294,0.05853177238962131
0.001855146290322581,0.7803917104928831,0.05115328367659489
0.001855156290322581,0.7807210305851369,0.06959950545901594
0.001855166290322581,0.7807210305851386,0.03639630625035749
0.001855176290322581,0.7817089908619261,0.04377479496340908
0.001855186290322581,0.7826969511387135,0.03270706189390708
0.001855196290322581,0.7813796707696621,0.03270706189365543
0.001855206290322581,0.7807210305851372,0.006882351397974749
0.001855216290322581,0.7817089908619238,0.01426084011101124
0.001855226290322581,0.7826969511387045,0.006882351397857311
0.001855236290322581,0.7807210305851369,-0.004185381671639436
0.001855246290322581,0.7807210305851369,0.006882351397937839
0.001855256290322581,0.7820383109541831,-0.01894235909764699
0.001855266290322581,0.7807210305851344,-0.02263160345441784
0.001855276290322581,0.7803917104928728,-0.0226316034544279
0.001855286290322581,0.7807210305851354,-0.03001009216747949
0.001855296290322581,0.7810503506773978,-0.03369933652402218
0.001855306290322581,0.7810503506774085,-0.04845631395019079
0.001855316290322581,0.7823676310464578,-0.03738858088061833
0.001855326290322581,0.7807210305851481,-0.04476706959365314
0.001855336290322581,0.7820383109541915,-0.04845631395028474
0.001855346290322581,0.7817089908619301,-0.05214555830678694
0.001855356290322581,0.7817089908619301,-0.04845631395026125
0.001855366290322581,0.7820383109541916,-0.0742810244458614
0.001855376290322581,0.7800623904006175,-0.07428102444613821
0.001855386290322581,0.7813796707696651,-0.0816595131591831
0.001855396290322581,0.7807210305851402,-0.08534875751570878
0.001855406290322581,0.7807210305851369,-0.08165951315922
0.001855416290322581,0.7797330703083485,-0.09641649058538862
0.001855426290322581,0.780721030585136,-0.1001057349419145
0.001855436290322581,0.7813796707696612,-0.11855195672453
0.001855446290322581,0.782038310954206,-0.007874626028386796
0.001855456290322581,0.7833555913232397,-0.02632084781093535
0.001855466290322581,0.7787451100315649,-0.01525311474135786
0.001855476290322581,0.7850021917845175,-0.01525311474132263
0.001855486290322581,0.7800623904006304,-0.007874626027975765
0.001855496290322581,0.7833555913232526,0.02901781753722872
0.001855506290322581,0.783684911415515,0.006882351398073732
0.001855516290322581,0.7757812292013184,0.05853177238920525
0.001855526290322581,0.789941993168475,0.01795008446795824
0.001855536290322581,0.7754519091089257,0.09542421595500028
0.001855546290322581,0.7866487922458151,0.06591026110293965
0.001855556290322581,0.7807210305851198,0.08804572724185139
0.001855566290322581,0.7787451100315709,0.06959950545862841
0.001855576290322581,0.7863194721536081,-0.1665121333590234
0.001855586290322581,0.7747932689244819,-1.011349091001496
0.001855596290322581,0.7817089908619343,-1.656966853408935
0.001855606290322581,0.7823676310464576,-2.273070660948568
0.001855616290322581,0.7790744301238326,-2.501803811053168
0.001855626290322581,0.7843435515999628,-2.748983182945538
0.001855636290322581,0.7764398693857336,-2.981405577406362
0.001855646290322581,0.7840142315077708,-3.147421573450023
0.001855656290322581,0.7830262712309951,-3.287612858998039
0.001855666290322581,0.7777571497548081,-3.368776234844979
0.001855676290322581,0.7840142315077684,-3.597509384949285
0.001855686290322581,0.7784157899393062,-3.697118982575482
0.001855696290322581,0.7803917104928535,-3.818864046340753
0.001855706290322581,0.7826969511386814,-3.881581200404377
0.001855716290322581,0.7761105492934395,-4.062354173874082
0.001855726290322581,0.7863194721535764,-4.114003594865443
0.001855736290322581,0.7787451100315765,-4.125071327934741
0.001855746290322581,0.781379670769667,-4.062354173874225
0.001855756290322581,0.7817089908619296,-4.102935861796008
0.001855766290322581,0.7807210305851445,-4.088178884370006
0.001855776290322581,0.78269695113871,-4.099246617439112
0.001855786290322581,0.7810503506773938,-4.047597196447944
0.001855796290322581,0.777757149754769,-4.080800395656676
0.001855806290322581,0.7840142315077185,-4.051286440804711
0.001855816290322581,0.7797330703083494,-4.106625106152674
0.001855826290322581,0.7807210305851369,-4.114003594865725
0.001855836290322581,0.7813796707696617,-4.099246617439622
0.001855846290322581,0.7790744301238508,-4.114003594865282
0.001855856290322581,0.7826969511387126,-4.069732662587033
0.001855866290322581,0.780062390400614,-4.040218707734841
0.001855876290322581,0.7823676310464401,-4.025461730308703
0.001855886290322581,0.7797330703083664,-4.014393997238797
0.001855896290322581,0.7826969511387192,-3.995947775456249
0.001855906290322581,0.7803917104928818,-4.021772485951929
0.001855916290322581,0.7833555913232226,-4.018083241595525
0.001855926290322581,0.7813796707696549,-4.036529463378246
0.001855936290322581,0.77940375021608,-4.040218707734772
0.001855946290322581,0.780391710492866,-4.043907952091297
0.001855956290322581,0.779074430123846,-4.066043418230782
0.001855966290322581,0.7823676310464495,-4.084489640013305
0.001855976290322581,0.7797330703083495,-4.073421906943727
0.001855986290322581,0.7797330703083435,-4.080800395656737
0.001855996290322581,0.7807210305851296,-4.102935861795975
0.001856006290322581,0.7797330703083448,-4.088178884369887
0.001856016290322581,0.7807210305851324,-4.084489640013362
0.001856026290322581,0.7797330703083538,-4.084489640013345
0.001856036290322581,0.7807210305851459,-4.095557373082746
0.001856046290322581,0.7823676310464582,-4.051286440804437
0.001856056290322581,0.7800623904006226,-4.003326264169603
0.001856066290322581,0.7807210305851489,-3.95536608753344
0.001856076290322581,0.7820383109541882,-3.874202711689907
0.001856086290322581,0.7800623904006134,-3.804107068915917
0.001856096290322581,0.7797330703083464,-3.734011426141927
0.001856106290322581,0.7810503506773965,-3.663915783366325
0.001856116290322581,0.780391710492875,-3.582752407522783
0.001856126290322581,0.78236763104645,-3.520035253461844
0.001856136290322581,0.7787451100315881,-3.431493388905342
0.001856146290322581,0.7810503506773963,-3.346640768703433
0.001856156290322581,0.7800623904006089,-3.269166637216392
0.001856166290322581,0.7810503506773945,-3.19169250572935
0.001856176290322581,0.7803917104928574,-3.103150641170873
0.001856186290322581,0.7787451100315576,-3.014608776614277
0.001856196290322581,0.7810503506773949,-2.933445400770709
0.001856206290322581,0.7807210305851398,-2.852282024927141
0.001856216290322581,0.7803917104928724,-2.748983182942503
0.001856226290322581,0.7803917104928718,-2.660441318385874
0.001856236290322581,0.7797330703083468,-2.560831720759677
0.001856246290322581,0.781050350677412,-2.431708168278361
0.001856256290322581,0.7820383109541945,-2.280449149660563
0.001856266290322581,0.7820383109541945,-2.081229954408169
0.001856276290322581,0.7797330703083593,-1.863564537373164
0.001856286290322581,0.7807210305851369,-1.616385165480407
0.001856296290322581,0.7807210305851351,-1.317556372601756
0.001856306290322581,0.7800623904006101,-0.9965921135840106
0.001856316290322581,0.7803917104928694,-0.6498031440706669
0.001856326290322581,0.7817089908619279,-0.2771894640534102
0.001856336290322581,0.781379670769666,0.1323166595209746
0.001856346290322581,0.7817089908619285,0.5639582492344941
0.001856356290322581,0.7846728716922764,0.9697751284522775
0.001856366290322581,0.8050907174127916,1.106277169649824
0.001856376290322581,0.8241912827640158,1.253846943910856
0.001856386290322581,0.844609128484288,1.30918560925887
0.001856396290322581,0.8791877381722162,1.364524274608506
0.001856406290322581,0.8808343386336148,1.48258009401699
0.001856416290322581,0.9140956679521107,1.475201605303942
0.001856426290322581,0.9157422684135381,1.471512360947403
0.001856436290322581,0.9233166305356401,1.478890849660298
0.001856446290322581,0.9239752707201575,1.453066139164577
0.001856456290322581,0.9081679062915583,1.338699564112277
0.001856466290322581,0.8910432614934253,1.28336089876232
0.001856476290322581,0.8627217335589143,1.176372812423709
0.001856486290322581,0.8465850490380525,1.213265255988967
0.001856496290322581,0.821227401933858,1.139480368858652
0.001856506290322581,0.8317656448860375,1.073073970440919
0.001856516290322581,0.8212274019336747,1.157926590640895
0.001856526290322581,0.8268258435021369,1.191129789849628
0.001856536290322581,0.8469143691300958,1.161615834997649
0.001856546290322581,0.8274844836868575,1.261225432624066
0.001856556290322581,0.8564646518059562,1.246468455197963
0.001856566290322581,0.847573009314869,1.294428631832798
0.001856576290322581,0.8511955303298571,1.298117876189371
0.001856586290322581,0.8643683340202877,1.272293165693962
0.001856596290322581,0.8607458130054003,1.312874853615746
0.001856606290322581,0.86008717282087,1.338699564111453
0.001856616290322581,0.8666735746660721,1.279671654406691
0.001856626290322581,0.8561353317136959,1.253846943911138
0.001856636290322581,0.8584405723595333,1.298117876189448
0.001856646290322581,0.8525128106988423,1.25015769955499
0.001856656290322581,0.8436211682076978,1.242779210841306
0.001856666290322581,0.8528421307910474,1.224332989058677
0.001856676290322581,0.8360468060856606,1.246468455197832
0.001856686290322581,0.8498782499605795,1.253846943910987
0.001856696290322581,0.8406572873772862,1.246468455197936
0.001856706290322581,0.8469143691302734,1.239089966484884
0.001856716290322581,0.8531714508832606,1.264914676980489
0.001856726290322581,0.8439504882999816,1.272293165693682
0.001856736290322581,0.8535007709755661,1.257536188267619
0.001856746290322581,0.8479023294071039,1.26491467698067
0.001856756290322581,0.8502075700529089,1.257536188267679
0.001856766290322581,0.848560969591608,1.26491467698062
0.001856776290322581,0.8482316494993455,1.250157699554517
0.001856786290322581,0.8452677686689843,1.242779210841462
0.001856796290322581,0.849548929868334,1.261225432624294
0.001856806290322581,0.8423038878386095,1.275982410050343
0.001856816290322581,0.8488902896838593,1.275982410050343
0.001856826290322581,0.84427980839221,1.250157699554721
0.001856836290322581,0.8459264088535087,1.253846943911165
0.001856846290322581,0.8479023294070756,1.268603921337233
0.001856856290322581,0.8439504882999258,1.257536188267656
0.001856866290322581,0.8469143691302566,1.264914676980623
0.001856876290322581,0.8426332079308698,1.27967165440677
0.001856886290322581,0.8462557289457571,1.257536188267615
0.001856896290322581,0.8442798083921856,1.253846943911083
0.001856906290322581,0.8449384485766981,1.250157699554644
0.001856916290322581,0.8446091284844345,1.264914676980677
0.001856926290322581,0.8439504882999096,1.257536188267626
0.001856936290322581,0.8436211682076462,1.257536188267605
0.001856946290322581,0.8429625280231025,1.26122543262426
0.001856956290322581,0.8413159275617917,1.27598241005033
0.001856966290322581,0.8406572873772667,1.261225432624227
0.001856976290322581,0.8429625280230929,1.250157699554591
0.001856986290322581,0.8409866074695262,1.257536188267569
0.001856996290322581,0.8406572873772638,1.250157699554517
0.001857006290322581,0.8393400070082148,1.257536188267555
0.001857016290322581,0.8419745677463032,1.250157699554477
0.001857026290322581,0.8399986471927363,1.246468455197942
0.001857036290322581,0.8406572873772613,1.239089966484891
0.001857046290322581,0.8396693271004791,1.246468455197896
0.001857056290322581,0.8403279672849788,1.25753618826758
0.001857066290322581,0.8373640864546197,1.253846943911061
0.001857076290322581,0.8380227266391447,1.257536188267587
0.001857086290322581,0.8376934065468871,1.272293165693635
0.001857096290322581,0.8370347663623607,1.253846943911074
0.001857106290322581,0.8383520467314106,1.2575361882676
0.001857116290322581,0.8367054462701022,1.250157699554564
0.001857126290322581,0.8370347663623433,1.239089966484931
0.001857136290322581,0.835717485993297,1.246468455197993
0.001857146290322581,0.835717485993297,1.25753618826757
0.001857156290322581,0.8360468060855584,1.246468455198063
0.001857166290322581,0.8340708855319812,1.25015769955451
0.001857176290322581,0.8350588458087678,1.250157699554507
0.001857186290322581,0.8344002056242428,1.242779210841455
0.001857196290322581,0.8350588458087406,1.246468455197885
0.001857206290322581,0.8324242850706557,1.239089966484884
0.001857216290322581,0.8330829252551806,1.24277921084141
0.001857226290322581,0.8317656448861334,1.22064374470229
0.001857236290322581,0.8324242850706581,1.242779210841506
0.001857246290322581,0.8330829252551852,1.253846943911016
0.001857256290322581,0.8347295257164977,1.235400722128387
0.001857266290322581,0.8337415654397198,1.250157699554369
0.001857276290322581,0.8307776846093347,1.242779210841415
0.001857286290322581,0.8314363247938593,1.242779210841413
0.001857296290322581,0.8314363247938593,1.239089966484887
0.001857306290322581,0.8317656448861074,1.239089966484756
0.001857316290322581,0.8301190444248003,1.22802223341536
0.001857326290322581,0.8297897243325377,1.261225432624093
0.001857336290322581,0.8297897243325372,1.209576011632886
0.001857346290322581,0.8288017640557412,1.239089966484746
0.001857356290322581,0.8284724439634802,1.22433298905871
0.001857366290322581,0.8288017640557427,1.239089966484813
0.001857376290322581,0.8281431238712214,1.24277921084138
0.001857386290322581,0.8261672033176362,1.242779210841372
0.001857396290322581,0.8274844836866861,1.23540072212832
0.001857406290322581,0.8261672033176362,1.220643744702216
0.001857416290322581,0.8271551635944152,1.213265255989181
0.001857426290322581,0.8264965234098929,1.228022233415254
0.001857436290322581,0.8264965234098929,1.235400722128306
0.001857446290322581,0.8248499229485842,1.20588676727618
0.001857456290322581,0.8245206028563037,1.198508278562644
0.001857466290322581,0.8241912827640394,1.172683568067077
0.001857476290322581,0.8228740023949895,1.209576011632335
0.001857486290322581,0.8258378832253344,1.22802223341504
0.001857496290322581,0.82287400239499,1.242779210841306
0.001857506290322581,0.8238619626717769,1.224332989058685
0.001857516290322581,0.8228740023949904,1.239089966484773
0.001857526290322581,0.822874002394981,1.224332989058641
0.001857536290322581,0.8225446823027149,1.220643744702129
0.001857546290322581,0.8212274019336649,1.220643744702129
0.001857556290322581,0.8222153622104471,1.20588676727606
0.001857566290322581,0.8202394416568711,1.213265255989222
0.001857576290322581,0.8205687617491357,1.239089966484847
0.001857586290322581,0.8225446823027107,1.224332989058744
0.001857596290322581,0.8192514813801098,1.205886767276132
0.001857606290322581,0.8199101215645987,1.216954500345662
0.001857616290322581,0.8189221612878114,1.231711477771765
0.001857626290322581,0.8185928411955486,1.235400722128296
0.001857636290322581,0.818263521103288,1.202197522919525
