TP2/Mediciones/Vsec y Vo para 3.csv

#Digilent WaveForms Oscilloscope Acquisition
#Device Name: Discovery2
#Serial Number: SN:210321B0E036
#Date Time: 2021-06-24 22:07:54.008
#Sample rate: 1e+08Hz
#Samples: 8192
#Trigger: Source: Channel 2 Type: Edge Condition: Rising Level: -2.8 V Hyst.: Auto HoldOff: 0 s
#Channel 1: Range: 200 mV/div Offset: -2.75 V Attenuation: 1 X
#Channel 2: Range: 2 V/div Offset: -400 mV Attenuation: 1 X
#Power Supplies: ON
#Positive Supply: ON
#Voltage: 3 V
#Negative Supply: OFF
#Voltage: -1 V

Time (s),Channel 1 (V),Channel 2 (V)
0.00185665935483871,2.953752034987654,-3.919280344189541
0.00185666935483871,2.954081355079917,-3.922969588546068
0.00185667935483871,2.955398635448967,-3.904523366763367
0.00185668935483871,2.953422714895392,-3.904523366763367
0.00185669935483871,2.953752034987653,-3.908212611119891
0.00185670935483871,2.954410675172175,-3.900834122407031
0.00185671935483871,2.953422714895385,-3.922969588546065
0.00185672935483871,2.951776114434072,-3.911901855476488
0.00185673935483871,2.954081355079901,-3.908212611119945
0.00185674935483871,2.954081355079908,-3.911901855476301
0.00185675935483871,2.952434754618599,-3.889766389337202
0.00185676935483871,2.953093394803123,-3.908212611119831
0.00185677935483871,2.952434754618605,-3.893455633693879
0.00185678935483871,2.953093394803121,-3.900834122406819
0.00185679935483871,2.952105434526334,-3.900834122406819
0.00185680935483871,2.953422714895382,-3.900834122406819
0.00185681935483871,2.952105434526345,-3.897144878050204
0.00185682935483871,2.953422714895385,-3.889766389337165
0.00185683935483871,2.951776114434073,-3.886077144980639
0.00185684935483871,2.952434754618592,-3.882387900624114
0.00185685935483871,2.95408135507991,-3.886077144980655
0.00185686935483871,2.952764074710861,-3.889766389337157
0.00185687935483871,2.952105434526336,-3.875009411911054
0.00185688935483871,2.952105434526333,-3.86394167884146
0.00185689935483871,2.952764074710864,-3.867630923197928
0.00185690935483871,2.953093394803126,-3.87500941191098
0.00185691935483871,2.951776114434078,-3.875009411910987
0.00185692935483871,2.952434754618606,-3.852873945771835
0.00185693935483871,2.95342271489539,-3.867630923197879
0.00185694935483871,2.953093394803127,-3.863941678841354
0.00185695935483871,2.952105434526342,-3.856563190128312
0.00185696935483871,2.954739995264435,-3.860252434484746
0.00185697935483871,2.95276407471086,-3.852873945771697
0.00185698935483871,2.950788154157285,-3.849184701415171
0.00185699935483871,2.952764074710859,-3.852873945771379
0.00185700935483871,2.952434754618599,-3.82335999091943
0.00185701935483871,2.952764074710862,-3.845495457058585
0.00185702935483871,2.952105434526338,-3.845495457058605
0.00185703935483871,2.951117474249554,-3.841806212702026
0.00185704935483871,2.952764074710859,-3.83811696834557
0.00185705935483871,2.951446794341808,-3.860252434484725
0.00185706935483871,2.951117474249543,-3.926658832902049
0.00185707935483871,2.953093394803113,-3.863941678841394
0.00185708935483871,2.951117474249538,-3.871320167554456
0.00185709935483871,2.949470873788226,-3.889766389337076
0.00185710935483871,2.951446794341859,-3.904523366762712
0.00185711935483871,2.956715915817972,-3.841806212701722
0.00185712935483871,2.942884471942948,-3.768021325571206
0.00185713935483871,2.959350476556031,-3.782778302997189
0.00185714935483871,2.946836313050193,-3.83442772398858
0.00185715935483871,2.957374556002553,-3.790156791710433
0.00185716935483871,2.952434754618615,-3.808603013493062
0.00185717935483871,2.946177672865633,-3.782778302997543
0.00185718935483871,2.957374556002512,-3.856563190127872
0.00185719935483871,2.949141553695953,-3.797535280423493
0.00185720935483871,2.949141553695953,-3.812292257849597
0.00185721935483871,2.954081355079857,-3.793846036067419
0.00185722935483871,2.947824273326931,-3.841806212702013
0.00185723935483871,2.956386595725755,-3.830738479632435
0.00185724935483871,2.949800193880533,-3.804913769136781
0.00185725935483871,2.950129513972779,-3.812292257849858
0.00185726935483871,2.95408135507991,-3.834427723988929
0.00185727935483871,2.949800193880498,-3.819670746562826
0.00185728935483871,2.95177611443405,-3.793846036067186
0.00185729935483871,2.95144679434179,-3.797535280423661
0.00185730935483871,2.949141553695953,-3.827049235275867
0.00185731935483871,2.95408135507989,-3.801224524780187
0.00185732935483871,2.948482913511454,-3.812292257849455
0.00185733935483871,2.951446794341809,-3.790156791710512
0.00185734935483871,2.95276407471086,-3.819670746562718
0.00185735935483871,2.950129513972767,-3.771710569928024
0.00185736935483871,2.951776114434054,-3.782778302997382
0.00185737935483871,2.949800193880482,-3.793846036066993
0.00185738935483871,2.949470873788219,-3.823359990919199
0.00185739935483871,2.95012951397274,-3.782778302997702
0.00185740935483871,2.948812233603694,-3.756953592501441
0.00185741935483871,2.949800193880482,-3.753264348144915
0.00185742935483871,2.951446794341794,-3.742196615075338
0.00185743935483871,2.949800193880488,-3.734818126362176
0.00185744935483871,2.950458834065005,-3.734818126362217
0.00185745935483871,2.948812233603692,-3.745885859431794
0.00185746935483871,2.952105434526306,-3.753264348144855
0.00185747935483871,2.951446794341784,-3.742196615075044
0.00185748935483871,2.94881223360369,-3.712682660222837
0.00185749935483871,2.949470873788215,-3.683168705370631
0.00185750935483871,2.95012951397274,-3.63151928437936
0.00185751935483871,2.950458834065013,-3.587248352099869
0.00185752935483871,2.950788154157276,-3.513463464969353
0.00185753935483871,2.948812233603701,-3.458124799621458
0.00185754935483871,2.950788154157253,-3.395407645559267
0.00185755935483871,2.948482913511428,-3.340068980211286
0.00185756935483871,2.949470873788215,-3.258905604367719
0.00185757935483871,2.951446794341787,-3.185120717237219
0.00185758935483871,2.949141553695955,-3.111335830105146
0.00185759935483871,2.949470873788217,-3.044929431687662
0.00185760935483871,2.948812233603692,-2.963766055844094
0.00185761935483871,2.950129513972733,-2.893670413070053
0.00185762935483871,2.949470873788214,-2.786682326729077
0.00185763935483871,2.948812233603689,-2.720275928311642
0.00185764935483871,2.949470873788213,-2.635423308111565
0.00185765935483871,2.949470873788212,-2.54319219919629
0.00185766935483871,2.948812233603691,-2.432514868500516
0.00185767935483871,2.949470873788216,-2.321837537804741
0.00185768935483871,2.949470873788218,-2.20009247403942
0.00185769935483871,2.949141553695955,-2.059901188488055
0.00185770935483871,2.949470873788217,-1.853303504522667
0.00185771935483871,2.949141553695955,-1.606124132635438
0.00185772935483871,2.948482913511413,-1.310984584106688
0.00185773935483871,2.947494953234634,-0.9715741033060367
0.00185774935483871,2.94815359341916,-0.5768249571577753
0.00185775935483871,2.948482913511422,-0.05295225853122798
0.00185776935483871,2.947824273326887,0.5373268385267219
0.00185777935483871,2.94683631305011,1.319446642111049
0.00185778935483871,2.949800193880473,2.415152215999214
0.00185779935483871,2.982073562922103,3.348531038200759
0.00185780935483871,3.04365642017651,3.687941519013391
0.00185781935483871,3.14113516748617,3.946188623970245
0.00185782935483871,3.199754143908893,4.256085149918412
0.00185783935483871,3.294927650572568,4.488507544379925
0.00185784935483871,3.346960225151529,4.628698829931406
0.00185785935483871,3.378245633916465,4.658212784783613
0.00185786935483871,3.431266168770696,4.529089232305425
0.00185787935483871,3.399322119821335,4.470061322596791
0.00185788935483871,3.388125236684179,4.130650841796589
0.00185789935483871,3.292293089835796,3.853957515057153
0.00185790935483871,3.19349706215706,3.319017083361733
0.00185791935483871,3.151673410438011,3.647359831087421
0.00185792935483871,3.062427665434932,3.304260105930615
0.00185793935483871,3.092395793830818,3.16775806473916
0.00185794935483871,3.108532478351584,3.47765459068992
0.00185795935483871,3.074612508849247,3.621535120593285
0.00185796935483871,3.194485022432791,3.514547034254037
0.00185797935483871,3.100958116230537,3.916674669114656
0.00185798935483871,3.195143662617408,3.739590940004957
0.00185799935483871,3.185922700034046,3.942499379613357
0.00185800935483871,3.171103295882234,3.916674669117676
0.00185801935483871,3.230380912489212,3.88347146990897
0.00185802935483871,3.20469394529315,3.909296180405261
0.00185803935483871,3.204364625200896,4.031041244170465
0.00185804935483871,3.223135870459858,3.828132804561546
0.00185805935483871,3.197119583170718,3.776483383569067
0.00185806935483871,3.161882333298926,3.805997338421017
0.00185807935483871,3.198436863540062,3.772794139212285
0.00185808935483871,3.117094800751442,3.7100769851514
0.00185809935483871,3.186910660310523,3.665806052873099
0.00185810935483871,3.144099048316512,3.758037161786034
0.00185811935483871,3.150685450161761,3.758037161786034
0.00185812935483871,3.188557260771816,3.772794139212077
0.00185813935483871,3.138829926840589,3.776483383568947
0.00185814935483871,3.193497062156162,3.805997338421153
0.00185815935483871,3.154637291269188,3.828132804560308
0.00185816935483871,3.170773975789979,3.765415650499129
0.00185817935483871,3.177031057542878,3.765415650499159
0.00185818935483871,3.161882333298811,3.772794139212208
0.00185819935483871,3.162870293575561,3.809686582777399
0.00185820935483871,3.172091256158785,3.74696942871642
0.00185821935483871,3.147721569331446,3.750658673072979
0.00185822935483871,3.169786015513032,3.772794139212134
0.00185823935483871,3.154307971176849,3.772794139212225
0.00185824935483871,3.151673410438703,3.769104894855495
0.00185825935483871,3.174396496804814,3.735901695646763
0.00185826935483871,3.141793807670853,3.769104894855465
0.00185827935483871,3.171761936066502,3.780172627925179
0.00185828935483871,3.150026809977293,3.765415650499075
0.00185829935483871,3.159906412745167,3.750658673072973
0.00185830935483871,3.160894373021975,3.776483383568561
0.00185831935483871,3.150685450161843,3.761726406142555
0.00185832935483871,3.158589132376127,3.758037161786029
0.00185833935483871,3.15496661136124,3.754347917429503
0.00185834935483871,3.15035613006957,3.765415650499013
0.00185835935483871,3.152990690807628,3.780172627925259
0.00185836935483871,3.151344090346315,3.769104894855682
0.00185837935483871,3.148709529608216,3.75434791742958
0.00185838935483871,3.156613211822402,3.761726406142649
0.00185839935483871,3.140805847393897,3.76910489485563
0.00185840935483871,3.154637291268921,3.754347917429527
0.00185841935483871,3.14245244785528,3.761726406142518
0.00185842935483871,3.147062929146884,3.758037161786195
0.00185843935483871,3.148050889423661,3.780172627925269
0.00185844935483871,3.141135167486149,3.743280184360012
0.00185845935483871,3.144428368408715,3.746969428716391
0.00185846935483871,3.140147207209338,3.746969428716336
0.00185847935483871,3.143111088039701,3.735901695646759
0.00185848935483871,3.139817887117082,3.746969428716316
0.00185849935483871,3.141135167486072,3.739590940003195
0.00185850935483871,3.13619536610216,3.728523206933676
0.00185851935483871,3.139159246932523,3.735901695646728
0.00185852935483871,3.133231485271822,3.746969428716296
0.00185853935483871,3.139488567024757,3.728523206933653
0.00185854935483871,3.133890125456299,3.728523206933663
0.00185855935483871,3.133231485271774,3.73959094000324
0.00185856935483871,3.133560805364032,3.721144718220759
0.00185857935483871,3.132243524994986,3.732212451290256
0.00185858935483871,3.133890125456298,3.743280184359834
0.00185859935483871,3.128291683887842,3.735901695646799
0.00185860935483871,3.134548765640763,3.724833962577201
0.00185861935483871,3.126974403518758,3.735901695646728
0.00185862935483871,3.13125556471817,3.728523206933676
0.00185863935483871,3.126315763334262,3.739590940003195
0.00185864935483871,3.127962363795519,3.713766229507412
0.00185865935483871,3.124998482965157,3.706387740794387
0.00185866935483871,3.121705282042532,3.728523206933542
0.00185867935483871,3.12466916287283,3.717455473864165
0.00185868935483871,3.118412081119891,3.73221245129
0.00185869935483871,3.122693242319303,3.68794151901169
0.00185870935483871,3.117753440935378,3.710076985150754
0.00185871935483871,3.118082761027587,3.713766229507399
0.00185872935483871,3.115777520381759,3.706387740794317
0.00185873935483871,3.116765480658545,3.687941519011696
0.00185874935483871,3.112813639551414,3.721144718220241
0.00185875935483871,3.114789560104942,3.684252274655058
0.00185876935483871,3.111496359182319,3.680563030298531
0.00185877935483871,3.113142959643632,3.673184541585479
0.00185878935483871,3.111825679274541,3.665806052872266
0.00185879935483871,3.107873838167425,3.658427564159339
0.00185880935483871,3.111825679274575,3.680563030298494
0.00185881935483871,3.104580637244821,3.687941519011572
0.00185882935483871,3.10721519798287,3.669495297229012
0.00185883935483871,3.10589791761382,3.684252274655048
0.00185884935483871,3.10458063724477,3.669495297228945
0.00185885935483871,3.104251317152504,3.673184541585404
0.00185886935483871,3.104251317152491,3.658427564159292
0.00185887935483871,3.102604716691178,3.665806052872344
0.00185888935483871,3.101946076506654,3.658427564159292
0.00185889935483871,3.099640835860796,3.680563030298239
0.00185890935483871,3.09931151576853,3.651049075446214
0.00185891935483871,3.098323555491743,3.665806052872317
0.00185892935483871,3.098323555491741,3.665806052872344
0.00185893935483871,3.096347634938147,3.654738319802701
0.00185894935483871,3.095359674661359,3.654738319802727
0.00185895935483871,3.094701034476835,3.669495297228831
0.00185896935483871,3.093713074200048,3.665806052872381
0.00185897935483871,3.093383754107764,3.662116808515752
0.00185898935483871,3.091737153646452,3.654738319802701
0.00185899935483871,3.090419873277403,3.647359831089649
0.00185900935483871,3.088773272816057,3.651049075445942
0.00185901935483871,3.087126672354749,3.628913609306908
0.00185902935483871,3.086797352262487,3.639981342376485
0.00185903935483871,3.084492111616653,3.643670586733028
0.00185904935483871,3.083833471432103,3.662116808515625
0.00185905935483871,3.083504151339839,3.639981342376484
0.00185906935483871,3.082186870970789,3.62522436495038
0.00185907935483871,3.080210950417217,3.628913609306831
0.00185908935483871,3.080210950417185,3.61046738752423
0.00185909935483871,3.077905709771347,3.628913609306859
0.00185910935483871,3.076917749494559,3.614156631880771
0.00185911935483871,3.075929789217756,3.621535120593737
0.00185912935483871,3.075600469125491,3.617845876237265
0.00185913935483871,3.074612508848704,3.628913609306842
0.00185914935483871,3.07230726820287,3.610467387524281
0.00185915935483871,3.072636588295117,3.621535120593557
0.00185916935483871,3.072965908387377,3.592021165741421
0.00185917935483871,3.070989987833802,3.614156631880576
0.00185918935483871,3.070660667741532,3.606778143167659
0.00185919935483871,3.067367466818888,3.599399654454446
0.00185920935483871,3.068026107003412,3.592021165741395
0.00185921935483871,3.065391546265316,3.614156631880526
0.00185922935483871,3.065391546265277,3.592021165741324
0.00185923935483871,3.063086305619451,3.584642677028331
0.00185924935483871,3.064403585988501,3.595710410097908
0.00185925935483871,3.062756985527197,3.569885699602329
0.00185926935483871,3.061439705158115,3.58833192138471
0.00185927935483871,3.060122424789066,3.569885699602123
0.00185928935483871,3.059463784604541,3.588331921384751
0.00185929935483871,3.058805144420016,3.592021165741351
0.00185930935483871,3.055182623405107,3.569885699602143
0.00185931935483871,3.056499903774157,3.577264188315194
0.00185932935483871,3.055182623405109,3.566196455245633
0.00185933935483871,3.053865343036022,3.580953432671681
0.00185934935483871,3.051560102390189,3.573574943958593
0.00185935935483871,3.050572142113401,3.551439477819438
0.00185936935483871,3.049584181836614,3.555128722175881
0.00185937935483871,3.048596221559807,3.558817966532413
0.00185938935483871,3.047937581375281,3.551439477819361
0.00185939935483871,3.046290980913969,3.544060989106309
0.00185940935483871,3.045961660821682,3.555128722175838
0.00185941935483871,3.044644380452633,3.54775023346277
0.00185942935483871,3.043327100083582,3.536682500393192
0.00185943935483871,3.043327100083581,3.544060989106219
0.00185944935483871,3.040692539345465,3.540371744749629
0.00185945935483871,3.040692539345463,3.529304011680062
0.00185946935483871,3.040033899160939,3.52192552296701
0.00185947935483871,3.038716618791891,3.529304011680015
0.00185948935483871,3.037728658515077,3.525614767323487
0.00185949935483871,3.036411378146027,3.518236278610446
0.00185950935483871,3.034764777684714,3.532993256036549
0.00185951935483871,3.033447497315631,3.521925522966948
0.00185952935483871,3.031800896854326,3.518236278610389
0.00185953935483871,3.031800896854326,3.507168545540811
0.00185954935483871,3.030483616485278,3.514547034253837
0.00185955935483871,3.031471576762026,3.507168545540796
0.00185956935483871,3.027190415562626,3.507168545540838
0.00185957935483871,3.028178375839413,3.525614767323467
0.00185958935483871,3.027190415562633,3.492411568114923
0.00185959935483871,3.02686109547034,3.518236278610439
0.00185960935483871,3.023897214639979,3.518236278610428
0.00185961935483871,3.024226534732242,3.492411568114747
0.00185962935483871,3.021591973994125,3.503479301184064
0.00185963935483871,3.021262653901853,3.485033079401525
0.00185964935483871,3.018628093163753,3.488722323758051
0.00185965935483871,3.017640132886962,3.496100812471096
0.00185966935483871,3.018628093163732,3.477654590688355
0.00185967935483871,3.016652172610158,3.470276101975328
0.00185968935483871,3.015005572148846,3.473965346331854
0.00185969935483871,3.014346931964317,3.466586857618843
0.00185970935483871,3.013358971687502,3.455519124549173
0.00185971935483871,3.010724410949402,3.462897613262224
0.00185972935483871,3.010724410949402,3.477654590688328
0.00185973935483871,3.00907781048807,3.459208368905603
0.00185974935483871,3.00808985021129,3.451829880192627
0.00185975935483871,3.009077810488078,3.462897613262204
0.00185976935483871,3.007431210026771,3.45551912454919
0.00185977935483871,3.003808689011864,3.426005169696805
0.00185978935483871,3.00578460956543,3.43338365840987
0.00185979935483871,3.002820728735068,3.448140635835974
0.00185980935483871,3.001832768458272,3.451829880192545
0.00185981935483871,2.99985684790468,3.422315925340288
0.00185982935483871,3.000515488089204,3.437072902766385
0.00185983935483871,2.998868887627893,3.444451391479439
0.00185984935483871,2.997880927351083,3.426005169696643
0.00185985935483871,2.997222287166557,3.414937436627106
0.00185986935483871,2.996234326889769,3.414937436627106
0.00185987935483871,2.993929086243935,3.418626680983623
0.00185988935483871,2.992611805874844,3.414937436627106
0.00185989935483871,2.99063588532127,3.414937436627116
0.00185990935483871,2.989647925044483,3.422315925340167
0.00185991935483871,2.988989284859957,3.396491214844637
0.00185992935483871,2.987672004490888,3.414937436627005
0.00185993935483871,2.987013364306363,3.396491214844376
0.00185994935483871,2.986354724121838,3.381734237418271
0.00185995935483871,2.985037443752761,3.389112726131272
0.00185996935483871,2.983390843291453,3.389112726131249
0.00185997935483871,2.98306152319919,3.381734237418197
0.00185998935483871,2.980756282553358,3.385423481774693
0.00185999935483871,2.980097642368822,3.38173423741815
0.00186000935483871,2.981744242830127,3.378044993061599
0.00186001935483871,2.97812172181524,3.355909526922444
0.00186002935483871,2.97713376153844,3.359598771278853
0.00186003935483871,2.976475121353892,3.348531038209193
0.00186004935483871,2.97482852089258,3.337463305139616
0.00186005935483871,2.975157840984841,3.33008481642656
0.00186006935483871,2.973511240523509,3.322706327713281
0.00186007935483871,2.972193960154461,3.307949350287166
0.00186008935483871,2.971535319969936,3.289503128504537
0.00186009935483871,2.972523280246719,3.271056906721908
0.00186010935483871,2.972523280246732,3.186204286520952
